,gemeinde,plz,uliste
1001,Aarau,5000,http://www.gemeinde-aarau.ch
1002,Aarburg,4663,http://www.aarburg.ch
1003,Abtwil,5646,http://www.abtwil.ch
1004,Sins,5643,no urls
1005,Ammerswil,5600,http://www.ammerswil.ch
1006,Wohlen (AG),5610,no urls
1007,Aristau,5628,no urls
1008,Arni (AG),8905,no urls
1009,Densbüren,5025,http://www.densbueren.ch
1010,Attelwil,5056,http://www.attelwil.ch
1011,Auenstein,5105,http://www.auenstein.ch
1012,Veltheim (AG),5105,no urls
1013,Auw,5644,no urls
1014,Bad Zurzach,5330,no urls
1015,Baden,5400,no urls
1016,Baldingen,5333,http://www.baldingen.ch
1017,Erlinsbach (AG),5017,no urls
1018,Beinwil (Freiamt),5637,no urls
1019,Beinwil am See,5712,no urls
1020,Bellikon,5454,http://www.bellikon.ch
1021,Merenschwand,5634,http://www.merenschwand.ch
1022,Bergdietikon,8962,http://www.bergdietikon.ch
1023,Berikon,8965,http://www.berikon.ch
1024,Widen,8967,no urls
1025,Besenbüren,5627,no urls
1026,Bettwil,5618,no urls
1027,Biberstein,5023,no urls
1028,Birmenstorf (AG),5413,no urls
1029,Birr,5242,no urls
1030,Birrhard,5244,http://www.birrhard.ch
1031,Birrwil,5708,no urls
1032,Boniswil,5706,no urls
1033,Boswil,5623,http://www.boswil.ch
1034,Bottenwil,4814,http://www.bottenwil.ch
1035,Bremgarten (AG),5620,no urls
1036,Brittnau,4805,http://www.brittnau.ch
1037,Windisch,5200,http://www.windisch.ch
1038,Brunegg,5505,http://www.brunegg.ch
1039,Buchs (AG),5033,no urls
1040,Burg (AG),5736,no urls
1041,Buttwil,5632,http://www.buttwil.ch
1042,Böbikon,5334,http://www.boebikon.ch
1043,Böttstein,5315,http://www.boettstein.ch
1044,Bözberg,5225,http://www.boezberg.ch
1045,Bözen,5076,http://www.boezen.ch
1046,Bünzen,5624,http://www.buenzen.ch
1047,Büttikon,5619,http://www.buettikon.ch
1048,Dietwil,6042,no urls
1049,Dintikon,5606,http://www.dintikon.ch
1050,Dottikon,5605,http://www.dottikon.ch
1051,Villmergen,5605,http://www.villmergen.ch
1052,Döttingen,5312,http://www.doettingen.ch
1053,Dürrenäsch,5724,http://www.duerrenaesch.ch
1054,Effingen,5078,http://www.effingen.ch
1055,Eggenwil,5445,no urls
1056,Egliswil,5704,no urls
1057,Ehrendingen,5420,http://www.ehrendingen.ch
1058,Eiken,5074,http://www.eiken.ch
1059,Elfingen,5077,http://www.elfingen.ch
1060,Endingen,5304,http://www.endingen.ch
1061,Ennetbaden,5408,http://www.ennetbaden.ch
1062,Mettauertal,5275,http://www.mettauertal.ch
1063,Fahrwangen,5615,http://www.fahrwangen.ch
1064,Fischbach-Göslikon,5525,no urls
1065,Fisibach,5467,http://www.fisibach.ch
1066,Fislisbach,5442,http://www.fislisbach.ch
1067,Freienwil,5423,no urls
1068,Frick,5070,http://www.frick.ch
1069,Full-Reuenthal,5324,no urls
1070,Gansingen,5272,http://www.gansingen.ch
1071,Gebenstorf,5412,http://www.gebenstorf.ch
1072,Geltwil,5637,no urls
1073,Gipf-Oberfrick,5073,no urls
1074,Murgenthal,4856,no urls
1075,Gränichen,5722,http://www.graenichen.ch
1076,Habsburg,5245,http://www.habsburg.ch
1077,Hallwil,5705,http://www.hallwil.ch
1078,Hausen (AG),5212,no urls
1079,Hellikon,4316,http://www.hellikon.ch
1080,Hendschiken,5604,http://www.hendschiken.ch
1081,Obersiggenthal,5415,http://www.obersiggenthal.ch
1082,Herznach,5027,http://www.herznach.ch
1083,Leuggern,5316,http://www.leuggern.ch
1084,Hirschthal,5042,no urls
1085,Holderbank (AG),5113,no urls
1086,Holziken,5043,http://www.holziken.ch
1087,Hornussen,5075,no urls
1088,Hunzenschwil,5502,http://www.hunzenschwil.ch
1089,Islisberg,8905,no urls
1090,Kaisten,5083,http://www.kaisten.ch
1091,Jonen,8916,http://www.jonen.ch
1092,Kaiseraugst,4303,http://www.kaiseraugst.ch
1093,Kaiserstuhl,5466,http://www.kaiserstuhl.ch
1094,Kallern,5625,http://www.kallern.ch
1095,Killwangen,8956,http://www.killwangen.ch
1096,Kirchleerau,5054,no urls
1097,Klingnau,5313,http://www.klingnau.ch
1098,Würenlos,5436,http://www.wuerenlos.ch
1099,Koblenz,5322,http://www.koblenz.ch
1100,Kölliken,5742,no urls
1101,Künten,5444,no urls
1102,Küttigen,5024,no urls
1103,Leibstadt,5325,http://www.leibstadt.ch
1104,Leimbach (AG),5733,no urls
1105,Lengnau (AG),5426,no urls
1106,Lenzburg,5600,http://www.lenzburg.ch
1107,Leutwil,5725,no urls
1108,Lupfig,5242,no urls
1109,Magden,4312,http://www.magden.ch
1110,Mandach,5318,http://www.mandach.ch
1111,Meisterschwanden,5616,no urls
1112,Mellikon,5465,http://www.mellikon.ch
1113,Mellingen,5507,no urls
1114,Menziken,5737,no urls
1115,Moosleerau,5054,http://www.moosleerau.ch
1116,Muhen,5037,http://www.muhen.ch
1117,Mumpf,4322,http://www.mumpf.ch
1118,Muri (AG),5630,no urls
1119,Mägenwil,5506,http://www.maegenwil.ch
1120,Möhlin,4313,http://www.moehlin.ch
1121,Mönthal,5237,http://www.moenthal.ch
1122,Möriken-Wildegg,5103,no urls
1123,Mühlau,5642,no urls
1124,Zofingen,4812,no urls
1125,Mülligen,5243,no urls
1126,Münchwilen (AG),4333,no urls
1127,Niederwil (AG),5524,no urls
1128,Neuenhof,5432,http://www.neuenhof.ch
1129,Niederlenz,5702,http://www.niederlenz.ch
1130,Niederrohrdorf,5443,http://www.niederrohrdorf.ch
1131,Oberentfelden,5036,http://www.oberentfelden.ch
1132,Schinznach,5108,no urls
1133,Oberhof,5062,http://www.oberhof.ch
1134,Oberkulm,5727,no urls
1135,Oberlunkhofen,8917,no urls
1136,Obermumpf,4324,no urls
1137,Oberrohrdorf,5452,http://www.oberrohrdorf.ch
1138,Oberrüti,5647,no urls
1139,Oberwil-Lieli,8966,no urls
1140,Oeschgen,5072,http://www.oeschgen.ch
1141,Oftringen,4665,http://www.oftringen.ch
1142,Olsberg,4305,http://www.olsberg.ch
1143,Othmarsingen,5504,http://www.othmarsingen.ch
1144,Reinach (AG),5734,no urls
1145,Reitnau,5057,http://www.reitnau.ch
1146,Rekingen (AG),5332,no urls
1147,Remetschwil,5453,http://www.remetschwil.ch
1148,Remigen,5236,http://www.remigen.ch
1149,Rheinfelden,4310,http://www.rheinfelden.ch
1150,Gontenschwil,6221,no urls
1151,Rietheim,5323,http://www.rietheim.ch
1152,Riniken,5223,http://www.riniken.ch
1153,Rothrist,4852,http://www.rothrist.ch
1154,Rottenschwil,8919,http://www.rottenschwil.ch
1155,Rudolfstetten-Friedlisb.,8964,no urls
1156,Rupperswil,5102,http://www.rupperswil.ch
1157,Rüfenach,5235,http://www.ruefenach.ch
1158,Rümikon,5464,http://www.ruemikon.ch
1159,Safenwil,5745,http://www.safenwil.ch
1160,Sarmenstorf,5614,http://www.sarmenstorf.ch
1161,Schafisheim,5503,http://www.schafisheim.ch
1162,Scherz,5246,no urls
1163,Schinznach-Bad,5116,no urls
1164,Schlossrued,5044,http://www.schlossrued.ch
1165,Schneisingen,5425,http://www.schneisingen.ch
1166,Schupfart,4325,http://www.schupfart.ch
1167,Schwaderloch,5326,http://www.schwaderloch.ch
1168,Schöftland,5040,http://www.schoeftland.ch
1169,Seengen,5707,no urls
1170,Seon,5703,no urls
1171,Würenlingen,5301,http://www.wuerenlingen.ch
1172,Siglistorf,5462,http://www.siglistorf.ch
1173,Sisseln,4334,http://www.sisseln.ch
1174,Spreitenbach,8957,http://www.spreitenbach.ch
1175,Staffelbach,5053,http://www.staffelbach.ch
1176,Staufen,5603,no urls
1177,Stein (AG),4332,no urls
1178,Stetten (AG),5608,no urls
1179,Villigen,5233,http://www.villigen.ch
1180,Strengelbach,4802,http://www.strengelbach.ch
1181,Suhr,5034,http://www.suhr.ch
1182,Laufenburg,5085,http://www.laufenburg.ch
1183,Tegerfelden,5306,http://www.tegerfelden.ch
1184,Teufenthal (AG),5723,no urls
1185,Thalheim (AG),5112,no urls
1186,Turgi,5300,http://www.turgi.ch
1187,Untersiggenthal,5417,http://www.untersiggenthal.ch
1188,Hägglingen,5522,http://www.haegglingen.ch
1189,Tägerig,5522,http://www.taegerig.ch
1190,Ueken,5028,http://www.ueken.ch
1191,Uerkheim,4813,http://www.uerkheim.ch
1192,Uezwil,5619,http://www.uezwil.ch
1193,Unterentfelden,5035,no urls
1194,Unterkulm,5726,no urls
1195,Unterlunkhofen,8918,no urls
1196,Villnachern,5213,http://www.villnachern.ch
1197,Vordemwald,4803,http://www.vordemwald.ch
1198,Schmiedrued,5046,no urls
1199,Wallbach,4323,http://www.wallbach.ch
1200,Waltenschwil,5622,http://www.waltenschwil.ch
1201,Wegenstetten,4317,http://www.wegenstetten.ch
1202,Wettingen,5430,http://www.wettingen.ch
1203,Wiliberg,5058,no urls
1204,Brugg,5200,http://www.brugg.ch
1205,Wislikofen,5463,http://www.wislikofen.ch
1206,Wittnau,5064,no urls
1207,Wohlenschwil,5512,http://www.wohlenschwil.ch
1208,Wölflinswil,5063,http://www.woelflinswil.ch
1209,Zeihen,5079,no urls
1210,Zeiningen,4314,http://www.zeiningen.ch
1211,Zetzwil,5732,http://www.zetzwil.ch
1212,Zufikon,5621,http://www.zufikon.ch
1213,Zuzgen,4315,http://www.zuzgen.ch
2001,Bühler,9055,http://www.buehler.swiss
2002,Gais,9056,http://www.gais.ch
2003,Grub (AR),9035,no urls
2004,Heiden,9410,http://www.heiden.ch
2005,Herisau,9100,http://www.herisau.ch
2006,Hundwil,9064,http://www.hundwil.ch
2007,Lutzenberg,9426,http://www.lutzenberg.ch
2008,Teufen (AR),9052,no urls
2009,Rehetobel,9038,http://www.rehetobel.ch
2010,Reute (AR),9411,no urls
2011,Schwellbrunn,9103,http://www.schwellbrunn.ch
2012,Schönengrund,9105,http://www.schoenengrund.ch
2013,Speicher,9042,http://www.speicher.ch
2014,Stein (AR),9063,no urls
2015,Trogen,9043,no urls
2016,Urnäsch,9107,http://www.urnaesch.ch
2017,Wald (AR),9044,no urls
2018,Waldstatt,9104,no urls
2019,Walzenhausen,9428,http://www.walzenhausen.ch
2020,Wolfhalden,9427,no urls
3001,Appenzell,9050,no urls
3002,Rüte,9050,http://www.ruete.ch
3003,Schwende,9057,http://www.schwende.ch
3004,Schlatt-Haslen,9050,no urls
3005,Oberegg,9442,no urls
3006,Gonten,9108,http://www.gonten.ch
4001,Aesch (BL),4147,no urls
4002,Duggingen,4147,http://www.duggingen.ch
4003,Allschwil,4123,http://www.allschwil.ch
4004,Anwil,4469,http://www.anwil.ch
4005,Arboldswil,4424,http://www.arboldswil.ch
4006,Arisdorf,4422,http://www.arisdorf.ch
4007,Arlesheim,4144,http://www.arlesheim.ch
4008,Augst,4302,http://www.augst.ch
4009,Bennwil,4431,http://www.bennwil.ch
4010,Biel-Benken,4105,no urls
4011,Binningen,4102,no urls
4012,Birsfelden,4127,http://www.birsfelden.ch
4013,Muttenz,4127,http://www.muttenz.ch
4014,Blauen,4223,http://www.blauen.ch
4015,Bottmingen,4103,http://www.bottmingen.ch
4016,Bretzwil,4207,http://www.bretzwil.ch
4017,Brislach,4225,http://www.brislach.ch
4018,Bubendorf,4416,http://www.bubendorf.ch
4019,Buckten,4446,no urls
4020,Burg im Leimental,4117,no urls
4021,Buus,4463,http://www.buus.ch
4022,Böckten,4461,http://www.boeckten.ch
4023,Diegten,4457,http://www.diegten.ch
4024,Diepflingen,4442,http://www.diepflingen.ch
4025,Dittingen,4243,http://www.dittingen.ch
4026,Eptingen,4458,http://www.eptingen.ch
4027,Ettingen,4107,http://www.ettingen.ch
4028,Frenkendorf,4402,no urls
4029,Füllinsdorf,4414,no urls
4030,Gelterkinden,4460,http://www.gelterkinden.ch
4031,Giebenach,4304,http://www.giebenach.ch
4032,Grellingen,4203,http://www.grellingen.ch
4033,Hemmiken,4465,http://www.hemmiken.ch
4034,Hersberg,4423,http://www.hersberg.ch
4035,Häfelfingen,4445,http://www.haefelfingen.ch
4036,Hölstein,4434,http://www.hoelstein.ch
4037,Itingen,4452,http://www.itingen.ch
4038,Kilchberg (BL),4496,no urls
4039,Känerkinden,4447,http://www.kaenerkinden.ch
4040,Lampenberg,4432,http://www.lampenberg.ch
4041,Langenbruck,4438,http://www.langenbruck.ch
4042,Laufen,4242,no urls
4043,Lausen,4415,http://www.lausen.ch
4044,Lauwil,4426,http://www.lauwil.ch
4045,Liedertswil,4436,http://www.liedertswil.ch
4046,Liesberg,4253,http://www.liesberg.ch
4047,Liestal,4410,http://www.liestal.ch
4048,Lupsingen,4419,no urls
4049,Läufelfingen,4448,http://www.laeufelfingen.ch
4050,Maisprach,4464,http://www.maisprach.ch
4051,Münchenstein,4142,http://www.muenchenstein.ch
4052,Nenzlingen,4224,http://www.nenzlingen.ch
4053,Niederdorf,4435,http://www.niederdorf.ch
4054,Nusshof,4453,http://www.nusshof.ch
4055,Oberdorf (BL),4436,no urls
4056,Oberwil (BL),4104,no urls
4057,Oltingen,4494,http://www.oltingen.ch
4058,Ormalingen,4466,http://www.ormalingen.ch
4059,Pfeffingen,4148,http://www.pfeffingen.ch
4060,Pratteln,4133,http://www.pratteln.ch
4061,Ramlinsburg,4433,no urls
4062,Reigoldswil,4418,http://www.reigoldswil.ch
4063,Reinach (BL),4153,no urls
4064,Therwil,4153,http://www.therwil.ch
4065,Rickenbach (BL),4462,no urls
4066,Roggenburg,2814,http://www.roggenburg.ch
4067,Rothenfluh,4467,http://www.rothenfluh.ch
4068,Röschenz,4244,http://www.roeschenz.ch
4069,Rümlingen,4444,no urls
4070,Rünenberg,4497,http://www.ruenenberg.ch
4071,Schönenbuch,4124,no urls
4072,Seltisberg,4411,no urls
4073,Sissach,4450,http://www.sissach.ch
4074,Tecknau,4492,no urls
4075,Tenniken,4456,http://www.tenniken.ch
4076,Thürnen,4441,http://www.thuernen.ch
4077,Titterten,4425,http://www.titterten.ch
4078,Wahlen,4246,http://www.gemeinde-wahlen.ch
4079,Waldenburg,4437,http://www.waldenburg.ch
4080,Wenslingen,4493,http://www.wenslingen.ch
4081,Wintersingen,4451,http://www.wintersingen.ch
4082,Wittinsburg,4443,http://www.wittinsburg.ch
4083,Zeglingen,4495,http://www.zeglingen.ch
4084,Ziefen,4417,http://www.ziefen.ch
4085,Zunzgen,4455,http://www.zunzgen.ch
4086,Zwingen,4222,http://www.zwingen.ch
5001,Basel,4000,http://www.gemeinde-basel.ch
5002,Bettingen,4126,http://www.bettingen.ch
5003,Riehen,4125,http://www.riehen.ch
6001,Aarberg,3270,http://www.aarberg.ch
6002,Aarwangen,4912,http://www.aarwangen.ch
6003,Saanen,3792,http://www.saanen.ch
6004,Frutigen,3714,http://www.frutigen.ch
6005,Adelboden,3715,no urls
6006,Aefligen,3426,http://www.aefligen.ch
6007,Aegerten,2558,http://www.aegerten.ch
6008,Eggiwil,3536,http://www.eggiwil.ch
6009,Aeschi bei Spiez,3711,no urls
6010,Oberdiessbach,3672,http://www.oberdiessbach.ch
6011,Sigriswil,3656,no urls
6012,Affoltern im Emmental,3416,no urls
6013,Rüdtligen-Alchenflüh,3422,no urls
6014,Alchenstorf,3473,http://www.alchenstorf.ch
6015,Allmendingen,3112,http://www.allmendingen.ch
6016,Grossaffoltern,3257,http://www.grossaffoltern.ch
6017,Amsoldingen,3633,http://www.amsoldingen.ch
6018,Arch,3296,no urls
6019,Arni (BE),3508,no urls
6020,Attiswil,4536,http://www.attiswil.ch
6021,Auswil,4944,http://www.auswil.ch
6022,Brienz (BE),3855,no urls
6023,Jegenstorf,3303,http://www.jegenstorf.ch
6024,Rapperswil (BE),3255,no urls
6025,Bannwil,4913,http://www.bannwil.ch
6026,Bargen (BE),3282,no urls
6027,Beatenberg,3803,http://www.beatenberg.ch
6028,Saicourt,2713,http://www.saicourt.ch
6029,Bellmund,2564,http://www.bellmund.ch
6030,Belp,3123,http://www.belp.ch
6031,Belprahon,2744,http://www.belprahon.ch
6032,Berken,3376,http://www.berken.ch
6033,Bern,3000,http://www.bern.ch
6034,Bettenhausen,3366,http://www.bettenhausen.ch
6035,Ferenbalm,3206,http://www.ferenbalm.ch
6036,Biel/Bienne,2500,no urls
6037,Hasle bei Burgdorf,3415,no urls
6038,Walkringen,3512,http://www.walkringen.ch
6039,Biglen,3507,http://www.biglen.ch
6040,Zweisimmen,3770,http://www.zweisimmen.ch
6041,Kandergrund,3717,http://www.kandergrund.ch
6042,Bleienbach,3368,http://www.bleienbach.ch
6043,Blumenstein,3638,http://www.blumenstein.ch
6044,Bolligen,3065,http://www.bolligen.ch
6045,Boltigen,3766,http://www.boltigen.ch
6046,Bowil,3533,http://www.bowil.ch
6047,Bremgarten bei Bern,3047,no urls
6048,Brenzikofen,3671,http://www.brenzikofen.ch
6049,Oberried am Brienzersee,3855,no urls
6050,Brienzwiler,3856,http://www.brienzwiler.ch
6051,Brügg,2555,http://www.bruegg.ch
6052,Brüttelen,3237,http://www.bruettelen.ch
6053,Horrenbach-Buchen,3623,no urls
6054,Burgdorf,3400,http://www.burgdorf.ch
6055,Burgistein,3664,http://www.burgistein.ch
6056,Seftigen,3664,http://www.seftigen.ch
6057,Grindelwald,3818,http://www.grindelwald.ch
6058,Lyss,3250,http://www.lyss.ch
6059,Busswil bei Melchnau,4917,no urls
6060,Langnau im Emmental,3550,no urls
6061,Bäriswil,3323,http://www.baeriswil.ch
6062,Bätterkinden,3315,http://www.baetterkinden.ch
6063,Valbirse,2735,http://www.valbirse.ch
6064,Bönigen,3806,http://www.boenigen.ch
6065,Büetigen,3263,http://www.bueetigen.ch
6066,Bühl,3274,http://www.buehl.ch
6067,Büren an der Aare,3294,no urls
6068,Fraubrunnen,3317,http://www.fraubrunnen.ch
6069,Thunstetten,4922,http://www.thunstetten.ch
6070,Champoz,2735,no urls
6071,Petit-Val,2715,no urls
6072,Clavaleyres,1595,no urls
6073,Corcelles (BE),2747,no urls
6074,Corgémont,2606,no urls
6075,Cormoret,2612,no urls
6076,Cortébert,2607,http://www.cortebert.ch
6077,Court,2738,http://www.court.ch
6078,Courtelary,2608,http://www.courtelary.ch
6079,Crémines,2746,http://www.cremines.ch
6080,Deisswil b. Münchenbuch.,3053,no urls
6081,Radelfingen,3036,http://www.radelfingen.ch
6082,Diemerswil,3053,http://www.diemerswil.ch
6083,Diemtigen,3754,http://www.diemtigen.ch
6084,Diessbach bei Büren,3264,no urls
6085,Plateau de Diesse,2516,no urls
6086,Dotzigen,3293,http://www.dotzigen.ch
6087,Därligen,3707,http://www.daerligen.ch
6088,Därstetten,3763,http://www.daerstetten.ch
6089,Dürrenroth,3465,http://www.duerrenroth.ch
6090,Trubschachen,3537,http://www.trubschachen.ch
6091,Lauterbrunnen,3823,http://www.lauterbrunnen.ch
6092,Spiez,3700,http://www.spiez.ch
6093,Lauperswil,3436,http://www.lauperswil.ch
6094,Wald (BE),3086,no urls
6095,Epsach,3272,http://www.epsach.ch
6096,Eriswil,4952,http://www.eriswil.ch
6097,Eriz,3619,http://www.eriz.ch
6098,Erlach,3235,http://www.erlach.ch
6099,Erlenbach im Simmental,3762,no urls
6100,Ersigen,3423,http://www.ersigen.ch
6101,Eschert,2743,no urls
6102,Evilard,2533,http://www.evilard.ch
6103,Fahrni,3617,no urls
6104,Trub,3556,http://www.trub.ch
6105,Farnern,4539,http://www.farnern.ch
6106,Gsteig,3784,http://www.gsteig.ch
6107,Finsterhennen,2577,http://www.finsterhennen.ch
6108,Forst-Längenbühl,3636,no urls
6109,Frauenkappelen,3202,http://www.frauenkappelen.ch
6110,Freimettigen,3510,http://www.freimettigen.ch
6111,Sauge,2535,no urls
6112,Innertkirchen,3863,http://www.innertkirchen.ch
6113,Gals,3238,http://www.gals.ch
6114,Gampelen,3236,http://www.gampelen.ch
6115,Köniz,3144,no urls
6116,Gelterfingen,3126,no urls
6117,Täuffelen,2575,http://www.taeuffelen.ch
6118,Gerzensee,3115,http://www.gerzensee.ch
6119,Golaten,3207,no urls
6120,Ringgenberg (BE),3805,no urls
6121,Gondiswil,4955,http://www.gondiswil.ch
6122,Graben,3376,http://www.graben.ch
6123,Grandval,2745,http://www.grandval.ch
6124,Seeberg,3365,no urls
6125,Grosshöchstetten,3506,http://www.grosshoechstetten.ch
6126,Oberthal,3506,no urls
6127,Lützelflüh,3432,http://www.luetzelflueh.ch
6128,Gsteigwiler,3814,http://www.gsteigwiler.ch
6129,Guggisberg,3158,http://www.guggisberg.ch
6130,Gurbrü,3208,http://www.gurbrue.ch
6131,Gurzelen,3663,http://www.gurzelen.ch
6132,Madiswil,4934,http://www.madiswil.ch
6133,Guttannen,3864,http://www.guttannen.ch
6134,Konolfingen,3510,http://www.konolfingen.ch
6135,Muri bei Bern,3073,no urls
6136,Mühleberg,3204,http://www.muehleberg.ch
6137,Gündlischwand,3815,http://www.guendlischwand.ch
6138,Habkern,3804,http://www.habkern.ch
6139,Hagneck,2575,http://www.hagneck.ch
6140,Hasliberg,6085,http://www.hasliberg.ch
6141,Heiligenschwendi,3625,http://www.heiligenschwendi.ch
6142,Heimberg,3627,http://www.heimberg.ch
6143,Heimenhausen,3373,http://www.heimenhausen.ch
6144,Buchholterberg,3615,http://www.buchholterberg.ch
6145,Trachselwald,3453,http://www.trachselwald.ch
6146,Rüeggisberg,3089,no urls
6147,Hellsau,3429,http://www.hellsau.ch
6148,Herbligen,3671,http://www.herbligen.ch
6149,Hermrigen,3274,http://www.hermrigen.ch
6150,Kirchlindach,3038,no urls
6151,Herzogenbuchsee,3360,no urls
6152,Krauchthal,3325,http://www.krauchthal.ch
6153,Hilterfingen,3652,http://www.hilterfingen.ch
6154,Hindelbank,3324,http://www.hindelbank.ch
6155,Wohlen bei Bern,3036,no urls
6156,Hofstetten bei Brienz,3858,no urls
6157,Homberg,3622,http://www.homberg.ch
6158,Huttwil,4950,http://www.huttwil.ch
6159,Häutligen,3510,http://www.haeutligen.ch
6160,Höchstetten,3429,http://www.hoechstetten.ch
6161,Stocken-Höfen,3632,no urls
6162,Iffwil,3305,http://www.iffwil.ch
6163,Inkwil,3375,http://www.inkwil.ch
6164,Ins,3232,http://www.ins.ch
6165,Interlaken,3800,http://www.interlaken.ch
6166,Ipsach,2563,http://www.ipsach.ch
6167,Iseltwald,3807,http://www.iseltwald.ch
6168,Ittigen,3063,http://www.ittigen.ch
6169,Jaberg,3629,http://www.jaberg.ch
6170,Jens,2565,http://www.jens.ch
6171,Kallnach,3283,http://www.kallnach.ch
6172,Kandersteg,3718,http://www.kandersteg.ch
6173,Kappelen,3273,http://www.kappelen.ch
6174,Kaufdorf,3126,http://www.kaufdorf.ch
6175,Kehrsatz,3122,no urls
6176,Kernenried,3309,http://www.kernenried.ch
6177,Reichenbach im Kandertal,3723,no urls
6178,Kiesen,3629,http://www.kiesen.ch
6179,Kirchberg (BE),3422,no urls
6180,Kirchdorf (BE),3116,no urls
6181,Kirchenthurnen,3128,http://www.kirchenthurnen.ch
6182,Koppigen,3425,http://www.koppigen.ch
6183,Krattigen,3704,http://www.krattigen.ch
6184,Kriechenwil,3179,http://www.kriechenwil.ch
6185,Renan (BE),2616,no urls
6186,La Ferrière,2333,no urls
6187,Sonvilier,2615,http://www.sonvilier.ch
6188,Péry-La Heutte,2603,no urls
6189,La Neuveville,2520,no urls
6190,Tavannes,2720,http://www.tavannes.ch
6191,Landiswil,3434,http://www.landiswil.ch
6192,Langenthal,4900,http://www.langenthal.ch
6193,Lauenen,3782,http://www.lauenen.ch
6194,Laupen,3177,http://www.laupen.ch
6195,Leissigen,3706,http://www.leissigen.ch
6196,Lengnau (BE),2543,no urls
6197,Lenk,3775,no urls
6198,Saint-Imier,2610,no urls
6199,Tramelan,2722,no urls
6200,Leuzigen,3297,http://www.leuzigen.ch
6201,Ligerz,2514,http://www.ligerz.ch
6202,Linden,3673,http://www.linden.ch
6203,Oberhünigen,3673,http://www.oberhuenigen.ch
6204,Lohnstorf,3127,no urls
6205,Lotzwil,4932,http://www.lotzwil.ch
6206,Loveresse,2732,http://www.loveresse.ch
6207,Lyssach,3421,http://www.lyssach.ch
6208,Rüti bei Lyssach,3421,no urls
6209,Lüscherz,2576,http://www.luescherz.ch
6210,Lütschental,3816,http://www.luetschental.ch
6211,Matten bei Interlaken,3800,no urls
6212,St. Stephan,3772,no urls
6213,Mattstetten,3322,http://www.mattstetten.ch
6214,Meienried,3294,http://www.meienried.ch
6215,Meikirch,3045,http://www.meikirch.ch
6216,Meinisberg,2554,http://www.meinisberg.ch
6217,Meiringen,3860,http://www.meiringen.ch
6218,Schattenhalb,3860,http://www.schattenhalb.ch
6219,Melchnau,4917,http://www.melchnau.ch
6220,Merzligen,3274,http://www.merzligen.ch
6221,Mirchel,3532,no urls
6222,Schwarzenburg,3150,http://www.schwarzenburg.ch
6223,Mont-Tramelan,2723,no urls
6224,Moosseedorf,3302,http://www.moosseedorf.ch
6225,Moutier,2740,http://www.moutier.ch
6226,Mörigen,2572,http://www.moerigen.ch
6227,Mötschwil,3324,no urls
6228,Mühledorf (BE),3116,no urls
6229,Mühlethurnen,3127,http://www.muehlethurnen.ch
6230,Münchenbuchsee,3053,http://www.muenchenbuchsee.ch
6231,Münchenwiler,1797,http://www.muenchenwiler.ch
6232,Münsingen,3110,http://www.muensingen.ch
6233,Müntschemier,3225,no urls
6234,Nidau,2560,http://www.nidau.ch
6235,Port,2560,http://www.port.ch
6236,Niederbipp,4704,http://www.niederbipp.ch
6237,Niederhünigen,3504,no urls
6238,Niedermuhlern,3087,http://www.niedermuhlern.ch
6239,Niederried b. Interlaken,3853,no urls
6240,Niederönz,3362,http://www.niederoenz.ch
6241,Nods,2518,http://www.nods.ch
6242,Noflen,3116,no urls
6243,Oberbalm,3096,http://www.oberbalm.ch
6244,Oberbipp,4538,http://www.oberbipp.ch
6245,Heimiswil,3412,http://www.heimiswil.ch
6246,Oberburg,3414,http://www.oberburg.ch
6247,Oberhofen am Thunersee,3653,no urls
6248,Obersteckholz,4924,http://www.obersteckholz.ch
6249,Oberwil bei Büren,3298,no urls
6250,Oberwil im Simmental,3765,no urls
6251,Ochlenberg,3367,http://www.ochlenberg.ch
6252,Oeschenbach,4943,http://www.oeschenbach.ch
6253,Ursenbach,4943,http://www.ursenbach.ch
6254,Oppligen,3629,http://www.oppligen.ch
6255,Orpund,2552,http://www.orpund.ch
6256,Orvin,2534,http://www.orvin.ch
6257,Perrefitte,2742,http://www.perrefitte.ch
6258,Pieterlen,2542,http://www.pieterlen.ch
6259,Pohlern,3638,http://www.pohlern.ch
6260,Romont (BE),2603,no urls
6261,Rebévelier,2717,no urls
6262,Reconvilier,2732,http://www.reconvilier.ch
6263,Reisiswil,4919,http://www.reisiswil.ch
6264,Reutigen,3647,http://www.reutigen.ch
6265,Rümligen,3132,http://www.ruemligen.ch
6266,Roches (BE),2762,no urls
6267,Roggwil (BE),4914,no urls
6268,Rohrbach,4938,http://www.gemeinde-rohrbach.ch
6269,Rohrbachgraben,4938,http://www.rohrbachgraben.ch
6270,Neuenegg,3176,http://www.neuenegg.ch
6271,Rubigen,3113,no urls
6272,Rumendingen,3472,no urls
6273,Rumisberg,4539,http://www.rumisberg.ch
6274,Röthenbach im Emmental,3538,no urls
6275,Rüegsau,3417,no urls
6276,Rüschegg,3153,no urls
6277,Rüti bei Büren,3295,no urls
6278,Riggisberg,3099,http://www.riggisberg.ch
6279,Rütschelen,4933,http://www.ruetschelen.ch
6280,Safnern,2553,http://www.safnern.ch
6281,Saules (BE),2732,no urls
6282,Saxeten,3813,http://www.saxeten.ch
6283,Schangnau,6197,http://www.schangnau.ch
6284,Schelten,2827,http://www.schelten.ch
6285,Scheuren,2556,http://www.scheuren.ch
6286,Schlosswil,3082,no urls
6287,Walterswil (BE),3464,no urls
6288,Schwadernau,2556,http://www.schwadernau.ch
6289,Schwanden bei Brienz,3855,no urls
6290,Wyssachen,4953,http://www.wyssachen.ch
6291,Oberlangenegg,3616,http://www.oberlangenegg.ch
6292,Unterlangenegg,3616,http://www.unterlangenegg.ch
6293,Schwarzhäusern,4911,http://www.schwarzhaeusern.ch
6294,Schwendibach,3624,no urls
6295,Signau,3534,http://www.signau.ch
6296,Schüpfen,3054,http://www.schuepfen.ch
6297,Seedorf (BE),3267,no urls
6298,Seehof,2747,no urls
6299,Siselen,2577,http://www.siselen.ch
6300,Sonceboz-Sombeval,2605,no urls
6301,Sorvilier,2736,http://www.sorvilier.ch
6302,Steffisburg,3612,http://www.steffisburg.ch
6303,Ostermundigen,3072,http://www.ostermundigen.ch
6304,Stettlen,3066,http://www.stettlen.ch
6305,Studen (BE),2557,no urls
6306,Sumiswald,3454,http://www.sumiswald.ch
6307,Sutz-Lattrigen,2572,no urls
6308,Wachseldorn,3618,http://www.wachseldorn.ch
6309,Teuffenthal (BE),3623,no urls
6310,Thierachern,3634,http://www.thierachern.ch
6311,Thun,3600,http://www.thun.ch
6312,Thörigen,3367,http://www.thoerigen.ch
6313,Toffen,3125,http://www.toffen.ch
6314,Treiten,3226,http://www.treiten.ch
6315,Tschugg,3233,http://www.tschugg.ch
6316,Tägertschi,3111,no urls
6317,Twann-Tüscherz,2513,no urls
6318,Uebeschi,3635,http://www.uebeschi.ch
6319,Uetendorf,3661,no urls
6320,Unterseen,3800,http://www.unterseen.ch
6321,Urtenen-Schönbühl,3322,no urls
6322,Uttigen,3628,http://www.uttigen.ch
6323,Utzenstorf,3427,http://www.utzenstorf.ch
6324,Villeret,2613,http://www.villeret.ch
6325,Vinelz,3234,http://www.vinelz.ch
6326,Walliswil bei Wangen,3377,no urls
6327,Walliswil bei Niederbipp,3380,no urls
6328,Walperswil,3272,http://www.walperswil.ch
6329,Wangen an der Aare,3380,no urls
6330,Wangenried,3374,http://www.wangenried.ch
6331,Wattenwil,3665,http://www.wattenwil.ch
6332,Wengi,3251,no urls
6333,Wichtrach,3114,no urls
6334,Wiedlisbach,4537,no urls
6335,Wiggiswil,3053,http://www.wiggiswil.ch
6336,Wilderswil,3812,http://www.wilderswil.ch
6337,Wiler bei Utzenstorf,3428,no urls
6338,Wileroltigen,3207,http://www.wileroltigen.ch
6339,Willadingen,3425,http://www.willadingen.ch
6340,Wimmis,3752,no urls
6341,Wolfisberg,4704,http://www.wolfisberg.ch
6342,Vechigen,3067,http://www.vechigen.ch
6343,Worb,3076,http://www.worb.ch
6344,Worben,3252,http://www.worben.ch
6345,Wynau,4923,http://www.wynau.ch
6346,Wynigen,3472,http://www.wynigen.ch
6347,Zielebach,4564,http://www.zielebach.ch
6348,Rüderswil,3436,http://www.ruederswil.ch
6349,Zollikofen,3052,http://www.zollikofen.ch
6350,Zuzwil (BE),3303,no urls
6351,Zwieselberg,3645,http://www.zwieselberg.ch
6352,Zäziwil,3532,http://www.zaeziwil.ch
7001,Ried bei Kerzers,3216,no urls
7002,Haut-Intyamon,1669,no urls
7003,Alterswil,1715,http://www.alterswil.ch
7004,Arconciel,1732,http://www.arconciel.ch
7005,Attalens,1616,http://www.attalens.ch
7006,Auboranges,1673,http://www.auboranges.ch
7007,Les Montets,1484,no urls
7008,Belfaux,1782,http://www.belfaux.ch
7009,Vernay,1475,no urls
7010,Autigny,1742,http://www.autigny.ch
7011,Pont-en-Ogoz,1644,no urls
7012,Avry,1754,http://www.avry.ch
7013,Barberêche,1783,no urls
7014,Mézières (FR),1680,no urls
7015,Saint-Martin (FR),1609,no urls
7016,Ursy,1670,http://www.ursy.ch
7017,Rue,1673,http://www.rue.ch
7018,Lully (FR),1470,no urls
7019,Le Mouret,1724,no urls
7020,Bossonnens,1615,http://www.bossonnens.ch
7021,Botterens,1652,http://www.botterens.ch
7022,Le Flon,1699,no urls
7023,Fribourg,1722,no urls
7024,St. Ursen,1722,no urls
7025,Broc,1636,http://www.broc.ch
7026,Brünisried,1719,http://www.bruenisried.ch
7027,Bulle,1630,http://www.bulle.ch
7028,Bussy (FR),1541,no urls
7029,Bösingen,3178,http://www.boesingen.ch
7030,Val-de-Charmey,1637,no urls
7031,Belmont-Broye,1773,no urls
7032,Cheiry,1529,http://www.cheiry.ch
7033,Chapelle (Glâne),1608,no urls
7034,Siviriez,1678,http://www.siviriez.ch
7035,Villorsonnens,1694,no urls
7036,Cheyres,1468,http://www.cheyres.ch
7037,Châbles,1474,http://www.chables.ch
7038,Châtel-sur-Montsalvens,1653,no urls
7039,Châtel-Saint-Denis,1618,no urls
7040,Le Châtelard,1689,no urls
7041,Châtillon (FR),1473,no urls
7042,Châtonnaye,1553,http://www.chatonnaye.ch
7043,Chénens,1744,http://www.chenens.ch
7044,Chésopelloz,1720,no urls
7045,Corbières,1647,http://www.corbieres.ch
7046,Gurmels,1792,http://www.gurmels.ch
7047,La Sonnaz,1782,no urls
7048,Corminboeuf,1720,http://www.corminboeuf.ch
7049,Misery-Courtion,1721,no urls
7050,Gibloux,1726,http://www.gibloux.swiss
7051,Corserey,1747,http://www.corserey.ch
7052,Cottens (FR),1741,no urls
7053,Courgevaux,1796,http://www.courgevaux.ch
7054,Courtepin,1791,http://www.courtepin.ch
7055,Montagny (FR),1774,no urls
7056,Cressier (FR),1785,no urls
7057,Crésuz,1653,http://www.cresuz.ch
7058,Cugy (FR),1482,no urls
7059,Delley-Portalban,1567,no urls
7060,Düdingen,3186,no urls
7061,Echarlens,1646,http://www.echarlens.ch
7062,Ecublens (FR),1673,no urls
7063,Hauterive (FR),1730,no urls
7064,Bas-Intyamon,1667,no urls
7065,Gruyères,1663,http://www.gruyeres.ch
7066,Ependes (FR),1731,no urls
7067,Estavayer-le-Lac,1470,no urls
7068,Vuisternens-dev-Romont,1687,no urls
7069,Ferpicloz,1724,http://www.ferpicloz.ch
7070,Ueberstorf,3175,http://www.ueberstorf.ch
7071,Tafers,1700,http://www.tafers.ch
7072,Fräschels,3284,http://www.fraeschels.ch
7073,Fétigny,1532,http://www.fetigny.ch
7074,Galmiz,3285,http://www.galmiz.ch
7075,Gempenach,3215,http://www.gempenach.ch
7076,Giffers,1735,http://www.giffers.ch
7077,Gletterens,1544,http://www.gletterens.ch
7078,Grandvillard,1666,http://www.grandvillard.ch
7079,Granges (Veveyse),1614,no urls
7080,Givisiez,1763,http://www.givisiez.ch
7081,Granges-Paccot,1763,no urls
7082,Grangettes,1686,no urls
7083,La Verrerie,1624,no urls
7084,Greng,3280,http://www.greng.ch
7085,Grolley,1772,http://www.grolley.ch
7086,Hauteville,1648,http://www.hauteville.ch
7087,Heitenried,1714,http://www.heitenried.ch
7088,St. Antoni,1714,no urls
7089,Billens-Hennens,1681,no urls
7090,Jaun,1656,http://www.jaun.ch
7091,Kerzers,3210,http://www.kerzers.ch
7092,Kleinbösingen,3213,http://www.kleinboesingen.ch
7093,La Roche,1634,no urls
7094,La Brillaz,1756,no urls
7095,Saint-Aubin (FR),1566,no urls
7096,La Folliaz,1690,no urls
7097,Marly,1723,http://www.marly.ch
7098,Marsens,1633,http://www.marsens.ch
7099,Massonnens,1692,http://www.massonnens.ch
7100,Matran,1753,http://www.matran.ch
7101,Sâles,1626,http://www.sales.ch
7102,Meyriez,3280,no urls
7103,Torny,1749,http://www.torny.ch
7104,Vallon,1565,http://www.vallon.ch
7105,Montet (Glâne),1674,no urls
7106,Morens (FR),1541,no urls
7107,Morlon,1638,http://www.morlon.ch
7108,Muntelier,3286,http://www.muntelier.ch
7109,Murist,1489,http://www.murist.ch
7110,Murten,3280,no urls
7111,Ménières,1533,http://www.menieres.ch
7112,Neyruz (FR),1740,no urls
7113,Ponthaux,1772,http://www.ponthaux.ch
7114,Noréaz,1757,http://www.noreaz.ch
7115,Nuvilly,1485,http://www.nuvilly.ch
7116,Oberschrot,1716,no urls
7117,Pierrafortscha,1723,http://www.pierrafortscha.ch
7118,Plaffeien,1716,http://www.plaffeien.ch
7119,Plasselb,1737,http://www.plasselb.ch
7120,Pont-la-Ville,1649,no urls
7121,Surpierre,1528,no urls
7122,Prez-vers-Noréaz,1746,no urls
7123,Prévondavaux,1410,http://www.prevondavaux.ch
7124,Le Pâquier (FR),1661,no urls
7125,Rechthalten,1718,http://www.rechthalten.ch
7126,Remaufens,1617,no urls
7127,Riaz,1632,http://www.riaz.ch
7128,Romont (FR),1680,no urls
7129,Rueyres-les-Prés,1542,no urls
7130,Schmitten (FR),3185,no urls
7131,Semsales,1623,http://www.semsales.ch
7132,Senèdes,1724,no urls
7133,Sorens,1642,http://www.sorens.ch
7134,St. Silvester,1736,no urls
7135,Mont-Vully,1786,no urls
7136,Sévaz,1541,http://www.sevaz.ch
7137,Tentlingen,1734,http://www.tentlingen.ch
7138,Treyvaux,1733,http://www.treyvaux.ch
7139,Ulmiz,3214,http://www.ulmiz.ch
7140,Vaulruz,1627,http://www.vaulruz.ch
7141,Villarepos,1583,http://www.villarepos.ch
7142,Villars-sur-Glâne,1752,no urls
7143,Villarsel-sur-Marly,1723,no urls
7144,Villaz-Saint-Pierre,1690,no urls
7145,Villeneuve (FR),1527,no urls
7146,Vuadens,1628,http://www.vuadens.ch
7147,Vuissens,1486,http://www.vuissens.ch
7148,Wallenried,1784,no urls
7149,Wünnewil-Flamatt,3184,no urls
7150,Zumholz,1719,no urls
8001,Aire-la-Ville,1288,no urls
8002,Anières,1247,http://www.anieres.ch
8003,Avusy,1285,http://www.avusy.ch
8004,Avully,1237,http://www.avully.ch
8005,Vernier,1219,http://www.vernier.ch
8006,Bellevue,1293,http://www.bellevue.swiss
8007,Bernex,1233,no urls
8008,Carouge (GE),1227,no urls
8009,Cartigny,1236,http://www.cartigny.ch
8010,Pregny-Chambésy,1292,no urls
8011,Chancy,1284,http://www.chancy.ch
8012,Choulex,1244,http://www.choulex.ch
8013,Chêne-Bougeries,1224,no urls
8014,Chêne-Bourg,1225,no urls
8015,Meyrin,1217,http://www.meyrin.ch
8016,Collex-Bossy,1239,no urls
8017,Cologny,1223,http://www.cologny.ch
8018,Thônex,1225,http://www.thonex.ch
8019,Confignon,1232,http://www.confignon.ch
8020,Corsier (GE),1246,no urls
8021,Céligny,1298,http://www.celigny.ch
8022,Dardagny,1283,http://www.dardagny.ch
8023,Genthod,1294,http://www.genthod.ch
8024,Genève,1200,http://www.geneve.ch
8025,Lancy,1212,http://www.lancy.ch
8026,Onex,1212,http://www.onex.ch
8027,Plan-les-Ouates,1212,no urls
8028,Gy,1251,no urls
8029,Hermance,1248,http://www.hermance.ch
8030,Jussy,1254,http://www.jussy.ch
8031,Bardonnex,1257,no urls
8032,Laconnex,1287,http://www.laconnex.ch
8033,Le Grand-Saconnex,1218,no urls
8034,Meinier,1252,http://www.meinier.ch
8035,Perly-Certoux,1258,no urls
8036,Presinge,1243,http://www.presinge.ch
8037,Puplinge,1241,http://www.puplinge.ch
8038,Russin,1281,http://www.russin.ch
8039,Satigny,1242,http://www.satigny.ch
8040,Soral,1286,http://www.soral.ch
8041,Troinex,1256,http://www.troinex.ch
8042,Vandoeuvres,1253,http://www.vandoeuvres.ch
8043,Versoix,1290,http://www.versoix.ch
8044,Veyrier,1234,http://www.veyrier.ch
8045,Collonge-Bellerive,1222,no urls
9001,Glarus Süd,8762,no urls
9002,Glarus Nord,8865,no urls
9003,Glarus,8750,no urls
10001,Domleschg,7415,http://www.domleschg.ch
10002,Poschiavo,7742,http://www.poschiavo.ch
10003,Albula/Alvra,7084,no urls
10004,Avers,7447,http://www.avers.ch
10005,Andeer,7440,http://www.andeer.ch
10006,Andiast,7159,no urls
10007,Scuol,7554,no urls
10008,Arosa,7050,no urls
10009,Calanca,6545,http://www.calanca.ch
10010,Luzein,7245,http://www.luzein.ch
10011,Rossa,6547,http://www.rossa.ch
10012,Ferrera,7444,http://www.ferrera.ch
10013,Bergün/Bravuogn,7482,no urls
10014,Bever,7502,http://www.bever.ch
10015,Surses,7457,http://www.surses.ch
10016,Bonaduz,7402,http://www.bonaduz.ch
10017,Zernez,7527,http://www.zernez.ch
10018,Breil/Brigels,7165,no urls
10019,Brusio,7743,http://www.brusio.ch
10020,Buseno,6542,http://www.buseno.ch
10021,Cama,6557,no urls
10022,Verdabbio,6557,no urls
10023,Tujetsch,7189,http://www.tujetsch.ch
10024,Lumnezia,7148,http://www.lumnezia.ch
10025,Castaneda,6540,http://www.castaneda.ch
10026,Ilanz/Glion,7130,no urls
10027,Disentis/Mustér,7180,no urls
10028,Cazis,7408,http://www.cazis.ch
10029,Celerina/Schlarigna,7505,no urls
10030,Silvaplana,7513,http://www.silvaplana.ch
10031,St. Moritz,7500,no urls
10032,Churwalden,7075,http://www.churwalden.ch
10033,S-chanf,7526,no urls
10034,Conters im Prättigau,7241,no urls
10035,Sumvitg,7173,http://www.sumvitg.ch
10036,Davos,7272,http://www.gemeinde-davos.ch
10037,Domat/Ems,7013,no urls
10038,Casti-Wergenstein,7433,no urls
10039,Donat,7433,http://www.donat.ch
10040,Schiers,7226,http://www.schiers.ch
10041,Falera,7153,http://www.falera.swiss
10042,Grüsch,7215,http://www.gruesch.ch
10043,Felsberg,7012,http://www.felsberg.ch
10044,Sils im Engadin/Segl,7514,no urls
10045,Flims,7017,no urls
10046,Fideris,7235,http://www.fideris.ch
10047,Filisur,7477,http://www.filisur.ch
10048,Flerden,7426,http://www.flerden.ch
10049,Fläsch,7306,http://www.flaesch.ch
10050,Val Müstair,7536,no urls
10051,Furna,7232,http://www.furna.ch
10052,Fürstenau,7414,http://www.fuerstenau.ch
10053,Tschappina,7428,http://www.tschappina.ch
10054,Grono,6537,http://www.grono.ch
10055,Haldenstein,7023,http://www.haldenstein.ch
10056,Hinterrhein,7438,http://www.hinterrhein.ch
10057,Landquart,7302,http://www.landquart.ch
10058,Jenaz,7233,http://www.jenaz.ch
10059,Jenins,7307,http://www.jenins.ch
10060,Klosters-Serneus,7250,no urls
10061,Küblis,7240,http://www.kueblis.ch
10062,La Punt-Chamues-ch,7522,no urls
10063,Laax,7031,no urls
10064,Lantsch/Lenz,7083,no urls
10065,Roveredo (GR),6549,no urls
10066,Leggia,6556,no urls
10067,Lohn (GR),7433,no urls
10068,Lostallo,6558,http://www.lostallo.ch
10069,San Vittore,6533,no urls
10070,Madulain,7523,no urls
10071,Maienfeld,7304,http://www.maienfeld.ch
10072,Maladers,7026,http://www.maladers.ch
10073,Malans,7208,http://www.malans.ch
10074,Valsot,7558,no urls
10075,Masein,7425,http://www.masein.ch
10076,Mathon,7433,no urls
10077,Splügen,7436,http://www.spluegen.ch
10078,Mesocco,6563,http://www.mesocco.ch
10079,Mutten,7431,http://www.mutten.ch
10080,Nufenen,7437,http://www.nufenen.ch
10081,Obersaxen Mundaun,7134,no urls
10082,Chur,7000,http://www.chur.ch
10083,Medel (Lucmagn),7185,no urls
10084,Pontresina,7504,http://www.pontresina.ch
10085,Tschiertschen-Praden,7063,no urls
10086,Bregaglia,7606,http://www.bregaglia.ch
10087,Rhäzüns,7403,http://www.rhaezuens.ch
10088,Rongellen,7430,http://www.rongellen.ch
10089,Rothenbrunnen,7405,http://www.rothenbrunnen.ch
10090,Sagogn,7152,http://www.sagogn.ch
10091,Samedan,7503,no urls
10092,Samnaun,7562,http://www.samnaun.swiss
10093,Trimmis,7202,http://www.trimmis.ch
10094,Scharans,7412,http://www.scharans.ch
10095,Schluein,7151,http://www.schluein.ch
10096,Schmitten (GR),7493,no urls
10097,Seewis im Prättigau,7212,no urls
10098,Sils im Domleschg,7411,no urls
10099,Soazza,6562,http://www.soazza.ch
10100,Santa Maria in Calanca,6541,no urls
10101,Sufers,7434,http://www.sufers.ch
10102,Vals,7116,http://www.vals.ch
10103,Thusis,7430,http://www.thusis.ch
10104,Trin,7014,http://www.trin.ch
10105,Trun,7166,http://www.trun.ch
10106,Untervaz,7204,http://www.untervaz.ch
10107,Zizers,7201,http://www.zizers.ch
10108,Urmein,7427,http://www.urmein.ch
10109,Vaz/Obervaz,7082,no urls
10110,Safiental,7104,http://www.safiental.ch
10111,Tamins,7015,http://www.tamins.ch
10112,Waltensburg/Vuorz,7158,no urls
10113,Zillis-Reischen,7432,no urls
10114,Zuoz,7524,http://www.zuoz.ch
11001,Alle,2942,http://www.alle.ch
11002,La Baroche,2954,no urls
11003,Haute-Sorne,2854,no urls
11004,Beurnevésin,2935,http://www.beurnevesin.ch
11005,Boncourt,2926,http://www.boncourt.ch
11006,Bonfol,2944,http://www.bonfol.ch
11007,Bourrignon,2803,http://www.bourrignon.ch
11008,Boécourt,2856,http://www.boecourt.ch
11009,Fontenais,2904,http://www.fontenais.ch
11010,Basse-Allaine,2923,no urls
11011,Bure,2915,http://www.bure.ch
11012,La Chaux-des-Breuleux,2345,no urls
11013,Haute-Ajoie,2912,no urls
11014,Châtillon (JU),2843,no urls
11015,Coeuve,2932,http://www.coeuve.ch
11016,Corban,2826,http://www.corban.ch
11017,Cornol,2952,http://www.cornol.ch
11018,Courchapoix,2825,no urls
11019,Courchavon,2922,no urls
11020,Courgenay,2950,http://www.courgenay.ch
11021,Courrendlin,2830,http://www.courrendlin.ch
11022,Courtedoux,2905,http://www.courtedoux.ch
11023,Courtételle,2852,http://www.courtetelle.ch
11024,Damphreux,2933,http://www.damphreux.ch
11025,Develier,2802,http://www.develier.ch
11026,Ederswiler,2813,http://www.ederswiler.ch
11027,Pleigne,2807,http://www.pleigne.ch
11028,Clos du Doubs,2883,no urls
11029,Fahy,2916,http://www.fahy.ch
11030,Lajoux (JU),2718,no urls
11031,Saignelégier,2354,http://www.saignelegier.ch
11032,Grandfontaine,2908,http://www.grandfontaine.ch
11033,Le Bémont (JU),2360,no urls
11034,Muriaux,2345,http://www.muriaux.ch
11035,Le Noirmont,2340,no urls
11036,Les Genevez (JU),2714,no urls
11037,Les Bois,2336,no urls
11038,Les Breuleux,2345,no urls
11039,Les Enfers,2363,no urls
11040,Lugnez,2933,no urls
11041,Mervelier,2827,http://www.mervelier.ch
11042,Mettembert,2806,no urls
11043,Montfaucon,2362,http://www.montfaucon.ch
11044,Movelier,2812,http://www.movelier.ch
11045,Porrentruy,2900,no urls
11046,Rebeuvelier,2832,no urls
11047,Rocourt,2907,http://www.rocourt.ch
11048,Rossemaison,2842,http://www.rossemaison.ch
11049,Saulcy,2873,http://www.saulcy.ch
11050,Soubey,2887,http://www.soubey.ch
11051,Courroux,2805,http://www.courroux.ch
11052,Delémont,2800,http://www.delemont.ch
11053,Soyhières,2805,http://www.soyhieres.ch
11054,Saint-Brais,2364,no urls
11055,Vellerat,2830,no urls
11056,Vendlincourt,2943,no urls
11057,Val Terbi,2829,no urls
12001,Adligenswil,6043,no urls
12002,Aesch (LU),6287,no urls
12003,Alberswil,6248,http://www.alberswil.ch
12004,Altbüron,6147,http://www.altbueron.ch
12005,Altishofen,6246,http://www.altishofen.ch
12006,Altwis,6286,http://www.altwis.ch
12007,Hochdorf,6280,no urls
12008,Ballwil,6275,http://www.ballwil.ch
12009,Beromünster,6215,http://www.beromuenster.ch
12010,Romoos,6167,http://www.romoos.ch
12011,Buchrain,6033,http://www.buchrain.ch
12012,Dagmersellen,6211,no urls
12013,Buttisholz,6018,http://www.buttisholz.ch
12014,Büron,6233,http://www.bueron.ch
12015,Dierikon,6036,http://www.dierikon.ch
12016,Doppleschwand,6112,http://www.doppleschwand.ch
12017,Ebersecken,6245,http://www.ebersecken.ch
12018,Ebikon,6030,http://www.ebikon.ch
12019,Entlebuch,6162,no urls
12020,Egolzwil,6243,http://www.egolzwil.ch
12021,Eich,6205,http://www.eich.ch
12022,Schwarzenberg,6013,http://www.schwarzenberg.ch
12023,Emmen,6032,http://www.emmen.ch
12024,Ermensee,6294,http://www.ermensee.ch
12025,Eschenbach (LU),6274,no urls
12026,Escholzmatt-Marbach,6192,no urls
12027,Ettiswil,6218,http://www.ettiswil.ch
12028,Fischbach,6145,no urls
12029,Flühli,6173,http://www.fluehli.ch
12030,Wolhusen,6110,http://www.wolhusen.ch
12031,Menznau,6122,http://www.menznau.ch
12032,Hitzkirch,6285,no urls
12033,Gettnau,6142,http://www.gettnau.ch
12034,Geuensee,6232,http://www.geuensee.ch
12035,Gisikon,6038,http://www.gisikon.ch
12036,Greppen,6404,http://www.greppen.ch
12037,Grossdietwil,6146,http://www.grossdietwil.ch
12038,Grosswangen,6022,http://www.grosswangen.ch
12039,Hasle (LU),6166,no urls
12040,Neuenkirch,6016,http://www.neuenkirch.ch
12041,Hergiswil bei Willisau,6133,no urls
12042,Römerswil,6028,http://www.roemerswil.ch
12043,Hildisrieden,6024,http://www.hildisrieden.ch
12044,Luthern,6156,http://www.luthern.ch
12045,Hohenrain,6276,http://www.hohenrain.ch
12046,Honau,6038,http://www.honau.ch
12047,Horw,6048,http://www.horw.ch
12048,Inwil,6034,http://www.inwil.ch
12049,Knutwil,6213,http://www.knutwil.ch
12050,Triengen,6234,http://www.triengen.ch
12051,Kriens,6010,no urls
12052,Reiden,6260,http://www.reiden.ch
12053,Luzern,6000,no urls
12054,Malters,6102,http://www.malters.ch
12055,Mauensee,6216,http://www.mauensee.ch
12056,Meggen,6045,http://www.meggen.ch
12057,Meierskappel,6344,http://www.meierskappel.ch
12058,Nebikon,6244,http://www.nebikon.ch
12059,Nottwil,6207,http://www.nottwil.ch
12060,Oberkirch,6208,http://www.oberkirch.ch
12061,Schötz,6143,http://www.schoetz.ch
12062,Pfaffnau,6264,no urls
12063,Rain,6026,http://www.rain.ch
12064,Rickenbach (LU),6221,no urls
12065,Roggliswil,6265,http://www.roggliswil.ch
12066,Root,6039,http://www.root.ch
12067,Rothenburg,6023,http://www.rothenburg.ch
12068,Ruswil,6017,http://www.ruswil.ch
12069,Werthenstein,6105,http://www.werthenstein.ch
12070,Schenkon,6214,no urls
12071,Schlierbach,6231,http://www.schlierbach.ch
12072,Schongau,6288,no urls
12073,Schüpfheim,6170,http://www.schuepfheim.ch
12074,Sempach,6204,http://www.sempach.ch
12075,Sursee,6210,http://www.sursee.ch
12076,Udligenswil,6044,http://www.udligenswil.ch
12077,Ufhusen,6153,http://www.ufhusen.ch
12078,Vitznau,6354,http://www.gemeinde-vitznau.ch
12079,Wauwil,6242,http://www.wauwil.ch
12080,Weggis,6353,no urls
12081,Wikon,4806,http://www.wikon.ch
12082,Willisau,6130,http://www.willisau.ch
12083,Zell (LU),6144,no urls
13001,Boudry,2017,http://www.boudry.ch
13002,Milvignes,2012,http://www.milvignes.ch
13003,Bevaix,2022,http://www.bevaix.ch
13004,Val-de-Ruz,2063,no urls
13005,Val-de-Travers,2108,no urls
13006,Rochefort,2019,http://www.rochefort.ch
13007,Brot-Plamboz,2318,no urls
13008,Le Cerneux-Péquignot,2414,no urls
13009,Neuchâtel,2000,no urls
13010,Gorgier,2023,http://www.gorgier.ch
13011,Corcelles-Cormondrèche,2035,no urls
13012,Cornaux,2087,http://www.cornaux.ch
13013,Cortaillod,2016,http://www.cortaillod.ch
13014,Cressier (NE),2088,no urls
13015,Enges,2073,http://www.enges.ch
13016,Fresens,2027,no urls
13017,Hauterive (NE),2068,no urls
13018,La Chaux-de-Fonds,2300,no urls
13019,La Chaux-du-Milieu,2405,no urls
13020,La Côte-aux-Fées,2117,no urls
13021,La Brévine,2406,no urls
13022,Le Landeron,2525,no urls
13023,La Sagne,2314,no urls
13024,Le Locle,2400,no urls
13025,Les Brenets,2416,no urls
13026,Les Planchettes,2325,no urls
13027,Les Verrières,2126,no urls
13028,Lignières,2523,http://www.lignieres.ch
13029,La Tène,2074,no urls
13030,Montalchez,2027,no urls
13031,Peseux,2034,http://www.peseux.ch
13032,Les Ponts-de-Martel,2316,no urls
13033,Saint-Aubin-Sauges,2024,no urls
13034,Saint-Blaise,2072,no urls
13035,Valangin,2042,http://www.valangin.ch
13036,Vaumarcus,2028,no urls
14001,Beckenried,6375,http://www.beckenried.ch
14002,Buochs,6374,http://www.buochs.ch
14003,Oberdorf (NW),6382,no urls
14004,Ennetbürgen,6363,http://www.ennetbuergen.ch
14005,Stansstad,6363,http://www.stansstad.ch
14006,Dallenwil,6383,http://www.dallenwil.ch
14007,Emmetten,6376,http://www.emmetten.ch
14008,Ennetmoos,6372,http://www.ennetmoos.ch
14009,Wolfenschiessen,6388,http://www.wolfenschiessen.ch
14010,Hergiswil (NW),6052,no urls
14011,Stans,6370,http://www.stans.ch
15001,Alpnach,6055,http://www.alpnach.ch
15002,Lungern,6078,http://www.lungern.ch
15003,Engelberg,6390,no urls
15004,Sachseln,6073,http://www.sachseln.ch
15005,Giswil,6074,http://www.giswil.ch
15006,Sarnen,6060,http://www.sarnen.ch
15007,Kerns,6068,http://www.kerns.ch
16001,Thayngen,8242,http://www.thayngen.ch
16002,Bargen (SH),8233,no urls
16003,Beggingen,8228,http://www.beggingen.ch
16004,Beringen,8222,http://www.beringen.ch
16005,Buch (SH),8263,no urls
16006,Buchberg,8454,http://www.buchberg.ch
16007,Büttenhardt,8236,http://www.buettenhardt.ch
16008,Dörflingen,8239,http://www.doerflingen.ch
16009,Gächlingen,8214,http://www.gaechlingen.ch
16010,Hallau,8215,http://www.hallau.ch
16011,Hemishofen,8261,http://www.hemishofen.ch
16012,Lohn (SH),8235,no urls
16013,Löhningen,8224,http://www.loehningen.ch
16014,Merishausen,8232,http://www.merishausen.ch
16015,Neuhausen am Rheinfall,8212,no urls
16016,Neunkirch,8213,no urls
16017,Oberhallau,8216,http://www.oberhallau.ch
16018,Wilchingen,8218,http://www.wilchingen.ch
16019,Ramsen,8262,http://www.ramsen.ch
16020,Rüdlingen,8455,http://www.ruedlingen.ch
16021,Schaffhausen,8203,http://www.schaffhausen.ch
16022,Schleitheim,8226,http://www.schleitheim.ch
16023,Siblingen,8225,http://www.siblingen.ch
16024,Stein am Rhein,8260,no urls
16025,Stetten (SH),8234,no urls
16026,Trasadingen,8219,no urls
17001,Alpthal,8849,http://www.alpthal.ch
17002,Altendorf,8852,no urls
17003,Arth,6415,http://www.arth.ch
17004,Einsiedeln,8836,http://www.einsiedeln.ch
17005,Feusisberg,8835,http://www.feusisberg.ch
17006,Muotathal,6436,http://www.muotathal.ch
17007,Ingenbohl,6440,http://www.ingenbohl.ch
17008,Schübelbach,8863,http://www.schuebelbach.ch
17009,Freienbach,8806,http://www.freienbach.ch
17010,Wollerau,8806,http://www.wollerau.ch
17011,Galgenen,8854,no urls
17012,Gersau,6442,no urls
17013,Schwyz,6438,no urls
17014,Illgau,6434,http://www.illgau.ch
17015,Küssnacht (SZ),6405,no urls
17016,Innerthal,8858,http://www.innerthal.ch
17017,Lachen,8853,http://www.lachen.ch
17018,Lauerz,6424,http://www.lauerz.ch
17019,Morschach,6443,http://www.morschach.ch
17020,Reichenburg,8864,http://www.reichenburg.ch
17021,Riemenstalden,6452,http://www.riemenstalden.ch
17022,Rothenthurm,6418,http://www.rothenthurm.ch
17023,Sattel,6417,http://www.sattel.ch
17024,Steinen,6422,http://www.steinen.ch
17025,Steinerberg,6416,http://www.steinerberg.ch
17026,Tuggen,8856,http://www.tuggen.ch
17027,Oberiberg,8843,http://www.oberiberg.ch
17028,Unteriberg,8842,http://www.unteriberg.ch
17029,Vorderthal,8857,http://www.vorderthal.ch
17030,Wangen (SZ),8855,no urls
18001,Aedermannsdorf,4714,http://www.aedermannsdorf.ch
18002,Aeschi (SO),4556,no urls
18003,Buchegg,4583,no urls
18004,Hägendorf,4615,http://www.haegendorf.ch
18005,Balm bei Günsberg,4524,no urls
18006,Messen,3254,http://www.messen.ch
18007,Balsthal,4710,http://www.balsthal.ch
18008,Beinwil (SO),4229,no urls
18009,Bellach,4512,http://www.bellach.ch
18010,Bettlach,2544,http://www.bettlach.ch
18011,Biberist,4562,http://www.biberist.ch
18012,Biezwil,4585,no urls
18013,Bolken,4556,http://www.bolken.ch
18014,Boningen,4618,http://www.boningen.ch
18015,Breitenbach,4226,http://www.breitenbach.ch
18016,Bärschwil,4252,http://www.baerschwil.ch
18017,Bättwil,4112,http://www.baettwil.ch
18018,Büren (SO),4413,no urls
18019,Büsserach,4227,no urls
18020,Deitingen,4543,http://www.deitingen.ch
18021,Derendingen,4552,http://www.derendingen.ch
18022,Dornach,4143,http://www.dornach.ch
18023,Dulliken,4657,http://www.dulliken.ch
18024,Däniken,4658,http://www.daeniken.ch
18025,Egerkingen,4622,http://www.egerkingen.ch
18026,Eppenberg-Wöschnau,5012,no urls
18027,Erlinsbach (SO),5015,no urls
18028,Erschwil,4228,http://www.erschwil.ch
18029,Etziken,4554,no urls
18030,Fehren,4232,http://www.fehren.ch
18031,Feldbrunnen-St. Niklaus,4532,no urls
18032,Flumenthal,4534,http://www.flumenthal.ch
18033,Hofstetten-Flüh,4112,no urls
18034,Fulenbach,4629,http://www.fulenbach.ch
18035,Gempen,4145,http://www.gempen.ch
18036,Gerlafingen,4563,http://www.gerlafingen.ch
18037,Grenchen,2540,http://www.grenchen.ch
18038,Gretzenbach,5014,no urls
18039,Grindel,4247,http://www.grindel.ch
18040,Gunzgen,4617,http://www.gunzgen.ch
18041,Lüterswil-Gächliwil,4584,no urls
18042,Gänsbrunnen,4716,http://www.gaensbrunnen.ch
18043,Günsberg,4524,no urls
18044,Halten,4566,http://www.halten.ch
18045,Hauenstein-Ifenthal,4633,no urls
18046,Drei Höfe,4558,no urls
18047,Herbetswil,4715,http://www.herbetswil.ch
18048,Himmelried,4204,http://www.himmelried.ch
18049,Hochwald,4146,http://www.hochwald.ch
18050,Holderbank (SO),4718,no urls
18051,Horriwil,4557,no urls
18052,Hubersdorf,4535,http://www.hubersdorf.ch
18053,Härkingen,4624,http://www.haerkingen.ch
18054,Hüniken,4554,http://www.hueniken.ch
18055,Lüterkofen-Ichertswil,4571,no urls
18056,Kammersrohr,4535,no urls
18057,Kappel (SO),4616,no urls
18058,Kestenholz,4703,http://www.kestenholz.ch
18059,Kienberg,4468,http://www.kienberg.ch
18060,Kleinlützel,4245,http://www.kleinluetzel.ch
18061,Kriegstetten,4566,no urls
18062,Langendorf,4513,no urls
18063,Lohn-Ammannsegg,4573,no urls
18064,Lommiswil,4514,http://www.lommiswil.ch
18065,Lostorf,4654,http://www.lostorf.ch
18066,Luterbach,4542,http://www.luterbach.ch
18067,Lüsslingen-Nennigkofen,4574,no urls
18068,Metzerlen-Mariastein,4115,no urls
18069,Meltingen,4233,http://www.meltingen.ch
18070,Laupersdorf,4712,http://www.laupersdorf.ch
18071,Matzendorf,4713,http://www.matzendorf.ch
18072,Mümliswil-Ramiswil,4717,no urls
18073,Neuendorf,4623,http://www.neuendorf.ch
18074,Niederbuchsiten,4626,http://www.niederbuchsiten.ch
18075,Niedergösgen,5013,http://www.niedergoesgen.ch
18076,Nuglar-St. Pantaleon,4412,no urls
18077,Nunningen,4208,http://www.nunningen.ch
18078,Oberbuchsiten,4625,http://www.oberbuchsiten.ch
18079,Oberdorf (SO),4515,no urls
18080,Obergerlafingen,4564,http://www.obergerlafingen.ch
18081,Obergösgen,4653,http://www.obergoesgen.ch
18082,Oekingen,4566,http://www.oekingen.ch
18083,Oensingen,4702,http://www.oensingen.ch
18084,Olten,4600,http://www.olten.ch
18085,Recherswil,4565,no urls
18086,Rickenbach (SO),4613,no urls
18087,Riedholz,4533,http://www.riedholz.ch
18088,Rodersdorf,4118,http://www.rodersdorf.ch
18089,Rohr (SO),4655,no urls
18090,Rüttenen,4522,http://www.ruettenen.ch
18091,Schnottwil,3253,http://www.schnottwil.ch
18092,Schönenwerd,5012,http://www.schoenenwerd.ch
18093,Seewen,4206,http://www.seewen.ch
18094,Selzach,2545,http://www.selzach.ch
18095,Solothurn,4500,http://www.solothurn.ch
18096,Starrkirch-Wil,4656,no urls
18097,Stüsslingen,4655,no urls
18098,Subingen,4553,http://www.subingen.ch
18099,Unterramsern,4588,http://www.unterramsern.ch
18100,Walterswil (SO),5746,no urls
18101,Wangen bei Olten,4612,no urls
18102,Welschenrohr,4716,http://www.welschenrohr.ch
18103,Winznau,4652,http://www.winznau.ch
18104,Trimbach,4634,http://www.trimbach.ch
18105,Wisen (SO),4634,no urls
18106,Witterswil,4108,http://www.witterswil.ch
18107,Wolfwil,4628,http://www.wolfwil.ch
18108,Zuchwil,4528,http://www.zuchwil.ch
18109,Zullwil,4234,http://www.zullwil.ch
19001,Gaiserwald,9030,http://www.gaiserwald.ch
19002,Uzwil,9249,http://www.uzwil.ch
19003,Wildhaus-Alt St. Johann,9656,no urls
19004,Thal,9425,http://www.thal.ch
19005,Altstätten,9450,http://www.altstaetten.ch
19006,Amden,8873,http://www.gemeinde-amden.ch
19007,Andwil (SG),9204,no urls
19008,Gossau (SG),9200,no urls
19009,Au (SG),9434,no urls
19010,Wartau,9479,http://www.wartau.ch
19011,Bad Ragaz,7310,no urls
19012,Balgach,9436,http://www.balgach.ch
19013,Kirchberg (SG),9533,no urls
19014,Benken (SG),8717,no urls
19015,Berg (SG),9305,no urls
19016,Berneck,9442,http://www.berneck.ch
19017,Waldkirch,9304,http://www.waldkirch.ch
19018,Walenstadt,8881,http://www.walenstadt.ch
19019,Oberuzwil,9248,http://www.oberuzwil.ch
19020,Rapperswil-Jona,8640,no urls
19021,Wil (SG),9552,no urls
19022,Neckertal,9125,http://www.neckertal.ch
19023,Buchs (SG),9470,no urls
19024,Sevelen,9475,http://www.sevelen.ch
19025,Hemberg,9633,no urls
19026,Bütschwil-Ganterschwil,9615,no urls
19027,Degersheim,9113,http://www.degersheim.ch
19028,Diepoldsau,9444,http://www.diepoldsau.ch
19029,Mosnang,9612,http://www.mosnang.ch
19030,Ebnat-Kappel,9642,no urls
19031,Eggersriet,9034,http://www.eggersriet.ch
19032,Eichberg,9453,http://www.eichberg.ch
19033,Nesslau,9651,http://www.nesslau.ch
19034,Gommiswald,8725,no urls
19035,Flawil,9230,no urls
19036,Flums,8890,http://www.flums.ch
19037,Gams,9473,http://www.gams.ch
19038,Goldach,9403,http://www.goldach.ch
19039,Grabs,9472,http://www.grabs.ch
19040,Widnau,9435,http://www.widnau.ch
19041,Mels,8886,http://www.mels.ch
19042,Häggenschwil,9312,http://www.haeggenschwil.ch
19043,Jonschwil,9243,http://www.jonschwil.ch
19044,Kaltbrunn,8722,http://www.kaltbrunn.ch
19045,Lichtensteig,9620,http://www.lichtensteig.ch
19046,Lütisburg,9604,no urls
19047,Marbach (SG),9437,no urls
19048,Schänis,8723,http://www.schaenis.ch
19049,Quarten,8885,http://www.quarten.ch
19050,Muolen,9313,http://www.muolen.ch
19051,Mörschwil,9402,http://www.moerschwil.ch
19052,Oberhelfenschwil,9621,http://www.oberhelfenschwil.ch
19053,Niederbüren,9246,no urls
19054,Oberbüren,9203,no urls
19055,Oberriet (SG),9463,no urls
19056,Rebstein,9445,no urls
19057,Rheineck,9424,http://www.rheineck.ch
19058,Rorschach,9400,http://www.rorschach.ch
19059,Rorschacherberg,9404,http://www.rorschacherberg.ch
19060,Rüthi (SG),9464,no urls
19061,Sargans,7320,http://www.sargans.ch
19062,Schmerikon,8716,http://www.schmerikon.ch
19063,Sennwald,9466,http://www.sennwald.ch
19064,St. Gallen,9000,no urls
19065,Wittenbach,9300,http://www.wittenbach.ch
19066,Eschenbach (SG),8735,no urls
19067,St. Margrethen,9430,no urls
19068,Steinach,9323,http://www.steinach.ch
19069,Tübach,9327,http://www.tuebach.ch
19070,Untereggen,9033,http://www.untereggen.ch
19071,Uznach,8730,http://www.uznach.ch
19072,Pfäfers,7317,http://www.pfaefers.ch
19073,Vilters-Wangs,7323,no urls
19074,Wattwil,9630,http://www.wattwil.ch
19075,Weesen,8872,http://www.weesen.ch
19076,Niederhelfenschwil,9526,http://www.niederhelfenschwil.ch
19077,Zuzwil (SG),9524,no urls
20001,Acquarossa,6716,http://www.acquarossa.ch
20002,Cugnasco-Gerra,6597,no urls
20003,Agno,6982,http://www.agno.ch
20004,Collina d'Oro,6927,no urls
20005,Airolo,6780,http://www.airolo.ch
20006,Faido,6760,http://www.faido.ch
20007,Aranno,6994,http://www.aranno.ch
20008,Arbedo-Castione,6517,no urls
20009,Losone,6618,http://www.losone.ch
20010,Arogno,6822,http://www.arogno.ch
20011,Alto Malcantone,6939,no urls
20012,Mendrisio,6872,no urls
20013,Ascona,6612,http://www.ascona.ch
20014,Astano,6999,http://www.astano.ch
20015,Isorno,6661,no urls
20016,Maggia,6678,http://www.maggia.ch
20017,Avegno Gordevio,6672,no urls
20018,Balerna,6828,http://www.balerna.ch
20019,Bedigliora,6981,http://www.bedigliora.ch
20020,Bedano,6930,http://www.bedano.ch
20021,Bedretto,6781,http://www.bedretto.ch
20022,Bellinzona,6500,http://www.bellinzona.ch
20023,Biasca,6710,http://www.biasca.ch
20024,Cevio,6690,http://www.cevio.ch
20025,Bioggio,6934,http://www.bioggio.ch
20026,Croglio,6981,http://www.croglio.ch
20027,Monteceneri,6802,http://www.monteceneri.ch
20028,Bissone,6816,http://www.bissone.ch
20029,Bodio,6743,http://www.bodio.ch
20030,Curio,6981,http://www.curio.ch
20031,Centovalli,6655,http://www.centovalli.swiss
20032,Bosco/Gurin,6685,no urls
20033,Brione (Verzasca),6634,no urls
20034,Brione sopra Minusio,6645,no urls
20035,Minusio,6648,http://www.minusio.ch
20036,Brissago,6614,http://www.brissago.ch
20037,Lavizzara,6695,http://www.lavizzara.ch
20038,Brusino Arsizio,6827,no urls
20039,Riva San Vitale,6827,no urls
20040,Breggia,6838,no urls
20041,Cademario,6936,http://www.cademario.ch
20042,Cadempino,6814,http://www.cadempino.ch
20043,Cadenazzo,6593,http://www.cadenazzo.ch
20044,Camorino,6528,http://www.camorino.ch
20045,Campo (Vallemaggia),6684,no urls
20046,Castel San Pietro,6875,no urls
20047,Canobbio,6952,http://www.canobbio.ch
20048,Rovio,6825,http://www.rovio.ch
20049,Sant'Antonio,6584,no urls
20050,Caslano,6987,http://www.caslano.ch
20051,Magliaso,6987,http://www.magliaso.ch
20052,Gambarogno,6578,http://www.gambarogno.ch
20053,Terre di Pedemonte,6652,no urls
20054,Cerentino,6683,http://www.cerentino.ch
20055,Chiasso,6830,http://www.chiasso.ch
20056,Claro,6702,no urls
20057,Coldrerio,6877,http://www.coldrerio.ch
20058,Comano,6949,http://www.comano.ch
20059,Onsernone,6663,http://www.onsernone.swiss
20060,Tenero-Contra,6646,no urls
20061,Corippo,6631,no urls
20062,Capriasca,6958,http://www.capriasca.ch
20063,Cresciano,6705,http://www.cresciano.ch
20064,Cureglia,6944,http://www.cureglia.ch
20065,Dalpe,6774,http://www.dalpe.ch
20066,Frasco,6636,no urls
20067,Novazzano,6883,http://www.novazzano.ch
20068,Giornico,6745,http://www.giornico.ch
20069,Giubiasco,6512,http://www.giubiasco.ch
20070,Gnosca,6525,http://www.gnosca.ch
20071,Gordola,6596,http://www.gordola.ch
20072,Gorduno,6518,http://www.gorduno.ch
20073,Grancia,6916,http://www.grancia.ch
20074,Gravesano,6929,http://www.gravesano.ch
20075,Gresso,6611,no urls
20076,Gudo,6515,http://www.gudo.ch
20077,Iragna,6707,http://www.iragna.ch
20078,Isone,6810,http://www.isone.ch
20079,Lamone,6814,http://www.lamone.ch
20080,Lavertezzo,6633,http://www.lavertezzo.ch
20081,Linescio,6682,no urls
20082,Locarno,6600,http://www.locarno.ch
20083,Lodrino,6527,no urls
20084,Paradiso,6900,http://www.paradiso.ch
20085,Lumino,6533,http://www.lumino.ch
20086,Serravalle,6713,http://www.serravalle.ch
20087,Manno,6928,http://www.manno.ch
20088,Maroggia,6817,http://www.maroggia.ch
20089,Massagno,6900,http://www.massagno.ch
20090,Melano,6818,http://www.melano.ch
20091,Melide,6815,http://www.melide.ch
20092,Mergoscia,6647,http://www.mergoscia.ch
20093,Mezzovico-Vira,6805,no urls
20094,Miglieglia,6986,http://www.miglieglia.ch
20095,Moleno,6524,no urls
20096,Monte Carasso,6513,no urls
20097,Morbio Inferiore,6834,no urls
20098,Morcote,6922,http://www.morcote.ch
20099,Vico Morcote,6922,no urls
20100,Mosogno,6611,no urls
20101,Muralto,6600,http://www.muralto.ch
20102,Muzzano,6933,http://www.muzzano.ch
20103,Neggio,6991,http://www.neggio.ch
20104,Novaggio,6986,http://www.novaggio.ch
20105,Blenio,6718,no urls
20106,Origlio,6945,http://www.origlio.ch
20107,Orselina,6644,http://www.orselina.ch
20108,Osogna,6703,http://www.osogna.ch
20109,Personico,6744,http://www.personico.ch
20110,Pianezzo,6582,http://www.pianezzo.ch
20111,Quinto,6777,no urls
20112,Pollegio,6742,http://www.pollegio.ch
20113,Ponte Capriasca,6946,no urls
20114,Monteggio,6996,http://www.monteggio.ch
20115,Ponte Tresa,6988,no urls
20116,Ronco sopra Ascona,6613,no urls
20117,Porza,6948,http://www.porza.ch
20118,Preonzo,6523,no urls
20119,Pura,6984,http://www.pura.ch
20120,Prato (Leventina),6772,no urls
20121,Sant'Antonino,6592,no urls
20122,Savosa,6942,http://www.savosa.ch
20123,Sementina,6514,http://www.sementina.ch
20124,Sessa,6997,no urls
20125,Sobrio,6749,no urls
20126,Sonogno,6637,http://www.sonogno.ch
20127,Sorengo,6924,http://www.sorengo.ch
20128,Stabio,6855,http://www.stabio.ch
20129,Torricella-Taverne,6808,no urls
20130,Vacallo,6833,http://www.vacallo.ch
20131,Vergeletto,6664,no urls
20132,Vernate,6992,http://www.vernate.ch
20133,Vezia,6943,http://www.vezia.ch
20134,Lugano,6951,http://www.lugano.ch
20135,Vogorno,6632,no urls
21001,Aadorf,8355,no urls
21002,Affeltrangen,9556,no urls
21003,Kemmental,8566,http://www.kemmental.ch
21004,Altnau,8595,http://www.altnau.ch
21005,Amlikon-Bissegg,8514,no urls
21006,Amriswil,8580,http://www.amriswil.ch
21007,Hefenhofen,8580,http://www.hefenhofen.ch
21008,Berg (TG),8572,no urls
21009,Birwinken,8585,no urls
21010,Arbon,9320,no urls
21011,Fischingen,8374,no urls
21012,Bichelsee-Balterswil,8362,no urls
21013,Basadingen-Schlattingen,8254,no urls
21014,Berlingen,8267,http://www.berlingen.ch
21015,Bettwiesen,9553,no urls
21016,Bischofszell,9220,http://www.bischofszell.ch
21017,Hauptwil-Gottshaus,9225,no urls
21018,Zihlschlacht-Sitterdorf,9220,no urls
21019,Bottighofen,8598,http://www.bottighofen.ch
21020,Braunau,9502,http://www.braunau.ch
21021,Uesslingen-Buch,8524,no urls
21022,Erlen,8586,http://www.erlen.ch
21023,Kradolf-Schönenberg,9215,no urls
21024,Bussnang,9565,http://www.bussnang.ch
21025,Sirnach,8370,no urls
21026,Bürglen (TG),8575,no urls
21027,Pfyn,8505,no urls
21028,Lengwil,8574,no urls
21029,Diessenhofen,8253,no urls
21030,Dozwil,8582,http://www.dozwil.ch
21031,Egnach,9322,http://www.egnach.ch
21032,Wäldi,8564,no urls
21033,Ermatingen,8272,no urls
21034,Eschenz,8264,no urls
21035,Mammern,8264,http://www.mammern.ch
21036,Hüttlingen,8553,http://www.huettlingen.ch
21037,Eschlikon,8360,no urls
21038,Münchwilen (TG),9542,no urls
21039,Wagenhausen,8259,no urls
21040,Felben-Wellhausen,8552,no urls
21041,Frauenfeld,8500,http://www.gemeinde-frauenfeld.ch
21042,Matzingen,9548,no urls
21043,Roggwil (TG),9306,no urls
21044,Gottlieben,8274,no urls
21045,Güttingen,8594,no urls
21046,Hohentannen,9216,http://www.hohentannen.ch
21047,Homburg,8508,http://www.homburg.ch
21048,Horn,9326,http://www.horn.ch
21049,Wuppenau,9515,http://www.wuppenau.ch
21050,Hüttwilen,8536,http://www.huettwilen.ch
21051,Gachnang,8500,no urls
21052,Kesswil,8593,http://www.kesswil.ch
21053,Kreuzlingen,8280,http://www.kreuzlingen.ch
21054,Tägerwilen,8280,no urls
21055,Münsterlingen,8596,http://www.muensterlingen.ch
21056,Langrickenbach,8585,no urls
21057,Herdern,8506,no urls
21058,Salenstein,8268,http://www.salenstein.ch
21059,Wigoltingen,8554,http://www.wigoltingen.ch
21060,Müllheim,8555,http://www.muellheim.ch
21061,Neunforn,8525,http://www.neunforn.ch
21062,Märstetten,8561,no urls
21063,Raperswilen,8558,http://www.raperswilen.ch
21064,Rickenbach (TG),9532,no urls
21065,Romanshorn,8590,no urls
21066,Salmsach,8599,http://www.salmsach.ch
21067,Schlatt (TG),8252,no urls
21068,Schönholzerswilen,8577,http://www.schoenholzerswilen.ch
21069,Sommeri,8580,no urls
21070,Steckborn,8266,http://www.steckborn.ch
21071,Stettfurt,9507,no urls
21072,Sulgen,8583,no urls
21073,Thundorf,8512,http://www.thundorf.ch
21074,Tobel-Tägerschen,9554,no urls
21075,Uttwil,8592,no urls
21076,Warth-Weiningen,8532,no urls
21077,Weinfelden,8570,no urls
21078,Lommis,9508,http://www.lommis.ch
21079,Wilen (TG),9535,no urls
21080,Wängi,9545,no urls
22001,Altdorf (UR),6460,no urls
22002,Bürglen (UR),6460,no urls
22003,Silenen,6475,http://www.silenen.ch
22004,Andermatt,6490,no urls
22005,Attinghausen,6468,http://www.attinghausen.ch
22006,Bauen,6466,http://www.gemeinde-bauen.ch
22007,Erstfeld,6472,http://www.erstfeld.ch
22008,Flüelen,6454,http://www.flueelen.ch
22009,Gurtnellen,6482,http://www.gurtnellen.ch
22010,Göschenen,6487,http://www.goeschenen.ch
22011,Schattdorf,6469,http://www.schattdorf.ch
22012,Hospental,6493,no urls
22013,Isenthal,6461,http://www.isenthal.ch
22014,Wassen,6485,http://www.wassen.ch
22015,Realp,6491,http://www.realp.ch
22016,Seelisberg,6377,http://www.seelisberg.ch
22017,Seedorf (UR),6462,no urls
22018,Sisikon,6452,http://www.sisikon.ch
22019,Spiringen,6464,http://www.spiringen.ch
22020,Unterschächen,6465,http://www.unterschaechen.ch
23001,Aclens,1123,http://www.aclens.ch
23002,Agiez,1352,no urls
23003,Aigle,1860,http://www.aigle.ch
23004,Allaman,1165,http://www.allaman.ch
23005,Cossonay,1304,http://www.cossonay.ch
23006,Apples,1143,http://www.apples.ch
23007,Bourg-en-Lavaux,1091,no urls
23008,Arnex-sur-Nyon,1277,no urls
23009,Arnex-sur-Orbe,1321,no urls
23010,Arzier-Le Muids,1273,no urls
23011,Assens,1042,http://www.assens.ch
23012,Aubonne,1170,http://www.aubonne.ch
23013,Avenches,1580,http://www.avenches.ch
23014,Ballaigues,1338,http://www.ballaigues.ch
23015,Ballens,1144,http://www.ballens.ch
23016,Bassins,1269,http://www.bassins.ch
23017,Baulmes,1446,http://www.baulmes.ch
23018,Bavois,1372,http://www.bavois.ch
23019,Begnins,1268,http://www.begnins.ch
23020,Vully-les-Lacs,1585,no urls
23021,Belmont-sur-Lausanne,1092,no urls
23022,Belmont-sur-Yverdon,1432,no urls
23023,Bercher,1038,no urls
23024,Berolle,1149,http://www.berolle.ch
23025,Bettens,1042,no urls
23026,Bioley-Magnoux,1407,no urls
23027,Bioley-Orjulaz,1042,no urls
23028,Bière,1145,no urls
23029,Blonay,1807,http://www.blonay.ch
23030,Bofflens,1353,http://www.bofflens.ch
23031,Bogis-Bossey,1279,no urls
23032,Bonvillars,1427,http://www.bonvillars.ch
23033,Borex,1277,http://www.borex.ch
23034,Bottens,1041,http://www.bottens.ch
23035,Bougy-Villars,1172,no urls
23036,Boulens,1063,http://www.boulens.ch
23037,Bournens,1035,http://www.bournens.ch
23038,Boussens,1034,http://www.boussens.ch
23039,Bremblens,1121,http://www.bremblens.ch
23040,Brenles,1683,http://www.brenles.ch
23041,Bretigny-sur-Morrens,1053,no urls
23042,Bretonnières,1329,http://www.bretonnieres.ch
23043,Buchillon,1164,http://www.buchillon.ch
23044,Bullet,1453,http://www.bullet.ch
23045,Bursinel,1195,no urls
23046,Bursins,1183,http://www.bursins.ch
23047,Burtigny,1268,http://www.burtigny.ch
23048,Bussigny,1030,http://www.bussigny.ch
23049,Oron,1607,http://www.oron.ch
23050,Bussy-Chardonney,1136,no urls
23051,Bussy-sur-Moudon,1514,no urls
23052,Carrouge (VD),1084,no urls
23053,Valbroye,1682,http://www.valbroye.ch
23054,Chamblon,1436,http://www.chamblon.ch
23055,Champagne,1424,http://www.champagne.ch
23056,Champtauroz,1537,http://www.champtauroz.ch
23057,Champvent,1443,http://www.champvent.ch
23058,Montanaire,1410,http://www.montanaire.ch
23059,Chardonne,1803,http://www.chardonne.ch
23060,Chavannes-près-Renens,1022,no urls
23061,Chavannes-le-Veyron,1148,no urls
23062,Chavannes-de-Bogis,1279,no urls
23063,Chavannes-des-Bois,1290,no urls
23064,Chavannes-le-Chêne,1464,no urls
23065,Chavannes-sur-Moudon,1512,no urls
23066,Chavornay,1373,http://www.chavornay.ch
23067,Chesalles-sur-Moudon,1683,no urls
23068,Cheseaux-sur-Lausanne,1033,no urls
23069,Cheseaux-Noréaz,1400,no urls
23070,Chessel,1846,http://www.chessel.ch
23071,Chevilly,1316,http://www.chevilly.ch
23072,Chevroux,1545,http://www.chevroux.ch
23073,Chexbres,1071,http://www.chexbres.ch
23074,Puidoux,1071,http://www.puidoux.ch
23075,Saint-Saphorin (Lavaux),1071,no urls
23076,Chigny,1134,http://www.chigny.ch
23077,Château-d'Oex,1660,no urls
23078,Chéserex,1275,http://www.cheserex.ch
23079,Chêne-Pâquier,1464,no urls
23080,Montreux,1820,http://www.montreux.ch
23081,Clarmont,1127,http://www.clarmont.ch
23082,Coinsins,1267,http://www.coinsins.ch
23083,Echichens,1114,http://www.echichens.ch
23084,Commugny,1291,http://www.commugny.ch
23085,Concise,1426,http://www.concise.ch
23086,Coppet,1296,http://www.coppet.ch
23087,Corbeyrier,1856,http://www.corbeyrier.ch
23088,Corcelles-sur-Chavornay,1374,no urls
23089,Corcelles-près-Concise,1426,no urls
23090,Corcelles-près-Payerne,1562,no urls
23091,Corcelles-le-Jorat,1082,no urls
23092,Corseaux,1802,http://www.corseaux.ch
23093,Corsier-sur-Vevey,1804,no urls
23094,Cottens (VD),1116,no urls
23095,Crans-près-Céligny,1299,no urls
23096,Crassier,1263,http://www.crassier.ch
23097,Cremin,1526,http://www.cremin.ch
23098,Crissier,1023,http://www.crissier.ch
23099,Cronay,1406,http://www.cronay.ch
23100,Croy,1322,http://www.croy.ch
23101,Cuarnens,1148,http://www.cuarnens.ch
23102,Cuarny,1404,http://www.cuarny.ch
23103,Cudrefin,1588,http://www.cudrefin.ch
23104,Cugy (VD),1053,no urls
23105,Curtilles,1521,http://www.curtilles.ch
23106,Daillens,1306,http://www.daillens.ch
23107,Denens,1135,http://www.denens.ch
23108,Denges,1026,http://www.denges.ch
23109,Dizy,1304,http://www.dizy.ch
23110,Montilliez,1041,http://www.montilliez.ch
23111,Dompierre (VD),1682,no urls
23112,Donneloye,1407,http://www.donneloye.ch
23113,Duillier,1266,http://www.duillier.ch
23114,Dully,1195,http://www.dully.ch
23115,Démoret,1415,http://www.demoret.ch
23116,Echallens,1040,http://www.echallens.ch
23117,Echandens,1026,http://www.echandens.ch
23118,Goumoëns,1376,http://www.goumoëns.ch
23119,Eclépens,1312,http://www.eclepens.ch
23120,Ecublens (VD),1024,no urls
23121,Epalinges,1066,http://www.epalinges.ch
23122,Essertines-sur-Yverdon,1417,no urls
23123,Ependes (VD),1434,no urls
23124,Essert-Pittet,1435,no urls
23125,Essertes,1078,http://www.essertes.ch
23126,Etagnières,1037,http://www.etagnieres.ch
23127,Etoy,1163,http://www.etoy.ch
23128,Eysins,1262,http://www.eysins.ch
23129,Faoug,1595,http://www.faoug.ch
23130,Ferlens (VD),1076,no urls
23131,Ferreyres,1313,http://www.ferreyres.ch
23132,Fey,1044,no urls
23133,Fiez,1420,http://www.fiez.ch
23134,Rougemont,1659,http://www.rougemont.ch
23135,Fontaines-sur-Grandson,1421,no urls
23136,Tévenon,1423,http://www.tevenon.ch
23137,Forel (Lavaux),1072,no urls
23138,Forel-sur-Lucens,1526,no urls
23139,Founex,1297,http://www.founex.ch
23140,Froideville,1055,http://www.froideville.ch
23141,Féchy,1173,http://www.fechy.ch
23142,Genolier,1272,http://www.genolier.ch
23143,Giez,1429,http://www.giez.ch
23144,Gilly,1182,http://www.gilly.ch
23145,Gimel,1188,http://www.gimel.ch
23146,Gingins,1276,http://www.gingins.ch
23147,Givrins,1271,http://www.givrins.ch
23148,Gland,1196,http://www.gland.ch
23149,Gollion,1124,http://www.gollion.ch
23150,Grancy,1117,http://www.grancy.ch
23151,Grandcour,1543,http://www.grandcour.ch
23152,Grandevent,1421,no urls
23153,Grandson,1422,http://www.grandson.ch
23154,Grens,1274,http://www.grens.ch
23155,Yverdon-les-Bains,1432,no urls
23156,Bex,1880,http://www.bex.ch
23157,Gryon,1882,http://www.gryon.ch
23158,Henniez,1525,no urls
23159,Hermenches,1513,http://www.hermenches.ch
23160,Jongny,1805,http://www.jongny.ch
23161,Jouxtens-Mézery,1008,no urls
23162,Juriens,1326,http://www.juriens.ch
23163,L'Abbaye,1344,no urls
23164,L'Abergement,1355,no urls
23165,Sainte-Croix,1450,no urls
23166,La Chaux (Cossonay),1308,no urls
23167,L'Isle,1148,no urls
23168,Saint-Cergue,1264,no urls
23169,La Praz,1148,no urls
23170,La Rippe,1278,no urls
23171,Les Clées,1356,no urls
23172,La Sarraz,1315,no urls
23173,Rossinière,1658,http://www.rossiniere.ch
23174,La Tour-de-Peilz,1814,no urls
23175,Lausanne,1000,http://www.lausanne.ch
23176,Lavey-Morcles,1892,no urls
23177,Lavigny,1175,http://www.lavigny.ch
23178,Le Lieu,1345,no urls
23179,Le Chenit,1348,no urls
23180,Ormont-Dessous,1863,no urls
23181,Le Vaud,1261,no urls
23182,Servion,1080,http://www.servion.ch
23183,Ormont-Dessus,1865,no urls
23184,Leysin,1854,no urls
23185,Lignerolle,1357,no urls
23186,Lonay,1027,http://www.lonay.ch
23187,Longirod,1261,http://www.longirod.ch
23188,Lovatens,1682,http://www.lovatens.ch
23189,Lucens,1522,http://www.lucens.ch
23190,Luins,1184,http://www.luins.ch
23191,Lully (VD),1132,no urls
23192,Lussery-Villars,1307,no urls
23193,Lussy-sur-Morges,1167,no urls
23194,Lutry,1095,http://www.lutry.ch
23195,Maracon,1613,http://www.maracon.ch
23196,Marchissy,1261,http://www.marchissy.ch
23197,Mathod,1438,http://www.mathod.ch
23198,Mauborget,1453,no urls
23199,Mauraz,1148,http://www.mauraz.ch
23200,Mex (VD),1031,no urls
23201,Mies,1295,http://www.mies.ch
23202,Missy,1565,http://www.missy.ch
23203,Moiry,1148,http://www.moiry.ch
23204,Mollens (VD),1146,no urls
23205,Savigny,1073,http://www.savigny.ch
23206,Molondin,1415,http://www.molondin.ch
23207,Mont-la-Ville,1148,no urls
23208,Le Mont-sur-Lausanne,1052,no urls
23209,Mont-sur-Rolle,1185,no urls
23210,Montagny-près-Yverdon,1442,no urls
23211,Jorat-Menthue,1041,no urls
23212,Montcherand,1354,http://www.montcherand.ch
23213,Montherod,1174,http://www.montherod.ch
23214,Montpreveyres,1081,http://www.montpreveyres.ch
23215,Veytaux,1820,http://www.veytaux.ch
23216,Montricher,1147,http://www.montricher.ch
23217,Morges,1110,http://www.morges.ch
23218,Morrens (VD),1054,no urls
23219,Moudon,1510,http://www.moudon.ch
23220,Syens,1510,http://www.syens.ch
23221,Vulliens,1510,http://www.vulliens.ch
23222,Mutrux,1428,http://www.mutrux.ch
23223,Mézières (VD),1083,no urls
23224,Novalles,1431,http://www.novalles.ch
23225,Noville,1845,http://www.noville.ch
23226,Nyon,1260,no urls
23227,Ogens,1045,http://www.ogens.ch
23228,Ollon,1867,http://www.ollon.ch
23229,Onnens (VD),1425,no urls
23230,Oppens,1047,http://www.oppens.ch
23231,Orbe,1350,http://www.orbe.ch
23232,Orges,1430,http://www.orges.ch
23233,Orny,1317,http://www.orny.ch
23234,Orzens,1413,http://www.orzens.ch
23235,Oulens-sous-Echallens,1377,no urls
23236,Pailly,1416,http://www.pailly.ch
23237,Pampigny,1142,http://www.pampigny.ch
23238,Paudex,1094,http://www.paudex.ch
23239,Penthalaz,1305,http://www.penthalaz.ch
23240,Penthaz,1303,http://www.penthaz.ch
23241,Penthéréaz,1375,http://www.penthereaz.ch
23242,Perroy,1166,http://www.perroy.ch
23243,Poliez-Pittet,1041,no urls
23244,Pompaples,1318,http://www.pompaples.ch
23245,Pomy,1405,http://www.pomy.ch
23246,Prangins,1197,http://www.prangins.ch
23247,Premier,1324,http://www.premier.ch
23248,Prilly,1008,http://www.prilly.ch
23249,Provence,1428,http://www.provence.ch
23250,Préverenges,1028,http://www.preverenges.ch
23251,Prévonloup,1682,http://www.prevonloup.ch
23252,Pully,1009,no urls
23253,Rances,1439,http://www.rances.ch
23254,Renens (VD),1020,no urls
23255,Rennaz,1847,http://www.rennaz.ch
23256,Reverolle,1128,http://www.reverolle.ch
23257,Rivaz,1071,http://www.rivaz.ch
23258,Roche (VD),1852,no urls
23259,Essertines-sur-Rolle,1186,no urls
23260,Rolle,1180,http://www.rolle.ch
23261,Romainmôtier-Envy,1323,no urls
23262,Romanel-sur-Lausanne,1032,no urls
23263,Romanel-sur-Morges,1122,no urls
23264,Ropraz,1088,http://www.ropraz.ch
23265,Rossenges,1513,http://www.rossenges.ch
23266,Villarzel,1554,http://www.villarzel.ch
23267,Rovray,1463,http://www.rovray.ch
23268,Rueyres,1046,http://www.rueyres.ch
23269,Sarzens,1683,http://www.sarzens.ch
23270,Saubraz,1189,http://www.saubraz.ch
23271,Senarclens,1304,http://www.senarclens.ch
23272,Sergey,1355,http://www.sergey.ch
23273,Signy-Avenex,1274,no urls
23274,Saint-Barthélemy (VD),1040,no urls
23275,Saint-George,1188,no urls
23276,Saint-Livres,1176,no urls
23277,Saint-Oyens,1187,no urls
23278,Saint-Prex,1162,no urls
23279,Saint-Sulpice (VD),1025,no urls
23280,Suchy,1433,http://www.suchy.ch
23281,Sullens,1036,http://www.sullens.ch
23282,Suscévaz,1437,http://www.suscevaz.ch
23283,Sévery,1141,http://www.severy.ch
23284,Tannay,1295,http://www.tannay.ch
23285,Tartegnin,1180,http://www.tartegnin.ch
23286,Tolochenaz,1131,http://www.tolochenaz.ch
23287,Trey,1552,http://www.trey.ch
23288,Treycovagnes,1436,http://www.treycovagnes.ch
23289,Treytorrens (Payerne),1538,no urls
23290,Trélex,1270,http://www.trelex.ch
23291,Ursins,1412,http://www.ursins.ch
23292,Valeyres-sous-Montagny,1441,no urls
23293,Valeyres-sous-Rances,1358,no urls
23294,Valeyres-sous-Ursins,1412,no urls
23295,Vallorbe,1337,http://www.vallorbe.ch
23296,Vaulion,1325,http://www.vaulion.ch
23297,Vaux-sur-Morges,1126,no urls
23298,Payerne,1551,http://www.payerne.ch
23299,Saint-Légier-La Chiésaz,1806,no urls
23300,Vevey,1800,http://www.vevey.ch
23301,Vich,1267,http://www.vich.ch
23302,Villars-Epeney,1404,no urls
23303,Villars-Sainte-Croix,1029,no urls
23304,Villars-le-Comte,1515,no urls
23305,Villars-le-Terroir,1040,no urls
23306,Villars-sous-Yens,1168,no urls
23307,Villeneuve (VD),1844,no urls
23308,Vinzel,1184,http://www.vinzel.ch
23309,Vuarrens,1418,http://www.vuarrens.ch
23310,Vucherens,1509,http://www.vucherens.ch
23311,Vufflens-le-Château,1134,no urls
23312,Vufflens-la-Ville,1302,no urls
23313,Vugelles-La Mothe,1431,no urls
23314,Vuiteboeuf,1445,http://www.vuiteboeuf.ch
23315,Vullierens,1115,http://www.vullierens.ch
23316,Yens,1169,http://www.yens.ch
23317,Yvonand,1462,http://www.yvonand.ch
23318,Yvorne,1853,http://www.yvorne.ch
24001,Agarn,3951,http://www.agarn.ch
24002,Leuk,3951,http://www.leuk.ch
24003,Albinen,3955,http://www.albinen.ch
24004,Mollens (VS),3974,no urls
24005,Ayent,1966,http://www.ayent.ch
24006,Nendaz,1996,http://www.nendaz.ch
24007,Sion,1991,http://www.sion.ch
24008,Arbaz,1974,http://www.arbaz.ch
24009,Ardon,1957,http://www.ardon.ch
24010,Evolène,1984,no urls
24011,Riddes,1908,http://www.riddes.ch
24012,Ausserberg,3938,http://www.ausserberg.ch
24013,Ernen,3995,http://www.ernen.ch
24014,Conthey,1976,http://www.conthey.ch
24015,Anniviers,3961,http://www.anniviers.ch
24016,Baltschieder,3937,http://www.baltschieder.ch
24017,Naters,3914,http://www.naters.ch
24018,Bellwald,3997,http://www.bellwald.ch
24019,Bettmeralp,3991,no urls
24020,Grafschaft,3989,no urls
24021,Binn,3996,http://www.binn.ch
24022,Bister,3983,no urls
24023,Bitsch,3982,http://www.bitsch.ch
24024,Blatten,3919,http://www.blatten.ch
24025,Blitzingen,3989,http://www.blitzingen.ch
24026,Bourg-Saint-Pierre,1946,no urls
24027,Port-Valais,1897,no urls
24028,Bovernier,1932,http://www.bovernier.ch
24029,Gampel-Bratsch,3945,no urls
24030,Brig-Glis,3900,no urls
24031,Ried-Brig,3900,no urls
24032,Bürchen,3935,no urls
24033,Chalais,3966,http://www.chalais.ch
24034,Sembrancher,1933,http://www.sembrancher.ch
24035,Chamoson,1955,http://www.chamoson.ch
24036,Grimisuat,1971,http://www.grimisuat.ch
24037,Val-d'Illiez,1873,no urls
24038,Sierre,3960,http://www.sierre.ch
24039,Champéry,1874,no urls
24040,Savièse,1965,http://www.saviese.ch
24041,Liddes,1945,http://www.liddes.ch
24042,Charrat,1906,http://www.charrat.ch
24043,Martigny,1920,http://www.martigny.ch
24044,Vollèges,1941,http://www.volleges.ch
24045,Chippis,3965,http://www.chippis.ch
24046,Monthey,1871,http://www.monthey.ch
24047,Collombey-Muraz,1868,no urls
24048,Collonges,1903,http://www.collonges.ch
24049,Montana,3963,http://www.montana.ch
24050,Icogne,3963,http://www.icogne.ch
24051,Les Agettes,1992,no urls
24052,Dorénaz,1905,no urls
24053,Leytron,1912,no urls
24054,Eggerberg,3939,http://www.eggerberg.ch
24055,Eischoll,3943,http://www.eischoll.ch
24056,Saint-Martin (VS),1969,no urls
24057,Eisten,3922,http://www.eisten.ch
24058,Embd,3926,http://www.embd.ch
24059,Ergisch,3947,http://www.ergisch.ch
24060,Hérémence,1987,http://www.heremence.ch
24061,Evionnaz,1902,http://www.evionnaz.ch
24062,Ferden,3916,http://www.ferden.ch
24063,Fiesch,3984,http://www.gemeinde-fiesch.ch
24064,Fieschertal,3984,http://www.fieschertal.ch
24065,Finhaut,1925,http://www.finhaut.ch
24066,Lens,3978,http://www.lens.ch
24067,Fully,1926,http://www.fully.ch
24068,Simplon,3907,http://www.simplon.ch
24069,Münster-Geschinen,3985,no urls
24070,Reckingen-Gluringen,3998,no urls
24071,Zwischbergen,3907,no urls
24072,Riederalp,3983,http://www.gemeinde-riederalp.ch
24073,Grengiols,3993,http://www.grengiols.ch
24074,Oberems,3946,http://www.oberems.ch
24075,Grächen,3925,http://www.graechen.ch
24076,Grône,3979,http://www.grone.ch
24077,Guttet-Feschel,3956,no urls
24078,Steg-Hohtenn,3949,no urls
24079,Inden,3953,http://www.inden.ch
24080,Isérables,1914,http://www.iserables.ch
24081,Kippel,3917,http://www.kippel.ch
24082,Orsières,1937,http://www.orsieres.ch
24083,Lalden,3931,http://www.lalden.ch
24084,Lax,3994,http://www.lax.ch
24085,Bagnes,1934,http://www.bagnes.ch
24086,Vex,1981,http://www.vex.ch
24087,Salvan,1922,no urls
24088,Leukerbad,3954,no urls
24089,Trient,1929,http://www.trient.ch
24090,Vernayaz,1904,no urls
24091,Martigny-Combe,1921,no urls
24092,Mont-Noble,1973,no urls
24093,Vouvry,1896,http://www.vouvry.ch
24094,Miège,3972,http://www.miege.ch
24095,Mörel-Filet,3983,no urls
24096,Niedergesteln,3942,http://www.niedergesteln.ch
24097,Niederwald,3989,http://www.niederwald.ch
24098,Chermignon,3971,no urls
24099,Obergoms,3999,http://www.obergoms.ch
24100,Randa,3928,http://www.randa.ch
24101,Randogne,3975,no urls
24102,Raron,3942,http://www.raron.ch
24103,Termen,3913,http://www.termen.ch
24104,Saas-Almagell,3905,no urls
24105,Saas-Balen,3908,no urls
24106,Saas-Fee,3906,no urls
24107,Saas-Grund,3910,no urls
24108,Saillon,1913,http://www.saillon.ch
24109,Salgesch,3970,http://www.salgesch.ch
24110,Saxon,1907,http://www.saxon.ch
24111,Saint-Gingolph,1898,no urls
24112,Saint-Léonard,1958,no urls
24113,Saint-Maurice,1890,no urls
24114,St. Niklaus,3924,no urls
24115,Stalden (VS),3922,no urls
24116,Staldenried,3933,http://www.staldenried.ch
24117,Vionnaz,1899,http://www.vionnaz.ch
24118,Troistorrents,1872,http://www.troistorrents.ch
24119,Turtmann-Unterems,3946,no urls
24120,Täsch,3929,http://www.taesch.ch
24121,Törbel,3923,http://www.toerbel.ch
24122,Unterbäch,3944,http://www.unterbaech.ch
24123,Varen,3953,http://www.varen.ch
24124,Venthône,3973,http://www.venthone.ch
24125,Veyras,3968,http://www.veyras.ch
24126,Veysonnaz,1993,no urls
24127,Visp,3930,http://www.visp.ch
24128,Visperterminen,3932,http://www.visperterminen.ch
24129,Massongex,1891,http://www.massongex.ch
24130,Vérossaz,1891,http://www.verossaz.ch
24131,Vétroz,1963,http://www.vetroz.ch
24132,Wiler (Lötschen),3918,no urls
24133,Zeneggen,3934,http://www.zeneggen.ch
24134,Zermatt,3920,http://www.gemeinde-zermatt.ch
25001,Baar,6340,http://www.baar.ch
25002,Oberägeri,6315,http://www.oberaegeri.ch
25003,Risch,6343,no urls
25004,Cham,6330,http://www.cham.ch
25005,Menzingen,6313,http://www.menzingen.ch
25006,Hünenberg,6331,http://www.huenenberg.ch
25007,Neuheim,6345,http://www.neuheim.ch
25008,Unterägeri,6314,http://www.unteraegeri.ch
25009,Steinhausen,6312,http://www.steinhausen.ch
25010,Walchwil,6318,no urls
25011,Zug,6300,http://www.zug.ch
26001,Mönchaltorf,8607,no urls
26002,Seegräben,8607,http://www.seegraeben.ch
26003,Bäretswil,8344,http://www.baeretswil.ch
26004,Adlikon,8452,http://www.adlikon.ch
26005,Regensdorf,8105,http://www.regensdorf.ch
26006,Adliswil,8134,http://www.adliswil.ch
26007,Neftenbach,8412,http://www.neftenbach.ch
26008,Aesch (ZH),8904,no urls
26009,Aeugst am Albis,8914,no urls
26010,Affoltern am Albis,8910,no urls
26011,Illnau-Effretikon,8307,no urls
26012,Kleinandelfingen,8453,no urls
26013,Altikon,8479,no urls
26014,Andelfingen,8450,http://www.andelfingen.ch
26015,Wiesendangen,8543,http://www.wiesendangen.ch
26016,Wädenswil,8804,http://www.waedenswil.ch
26017,Pfäffikon,8330,http://www.pfaeffikon.ch
26018,Bachenbülach,8184,no urls
26019,Bachs,8164,http://www.bachs.ch
26020,Bassersdorf,8303,no urls
26021,Bauma,8494,http://www.bauma.ch
26022,Fällanden,8121,http://www.faellanden.ch
26023,Benken (ZH),8463,no urls
26024,Berg am Irchel,8415,no urls
26025,Birmensdorf (ZH),8903,no urls
26026,Bonstetten,8906,http://www.bonstetten.ch
26027,Boppelsen,8113,http://www.boppelsen.ch
26028,Brütten,8311,http://www.bruetten.ch
26029,Wangen-Brüttisellen,8306,no urls
26030,Bubikon,8608,http://www.bubikon.ch
26031,Buch am Irchel,8414,no urls
26032,Buchs (ZH),8107,no urls
26033,Dägerlen,8471,http://www.daegerlen.ch
26034,Bülach,8180,http://www.buelach.ch
26035,Dachsen,8447,http://www.dachsen.ch
26036,Dielsdorf,8157,http://www.dielsdorf.ch
26037,Dietikon,8953,http://www.dietikon.ch
26038,Dietlikon,8305,http://www.dietlikon.ch
26039,Dinhard,8474,no urls
26040,Dorf,8458,http://www.dorf.ch
26041,Dällikon,8108,http://www.daellikon.ch
26042,Dänikon,8114,no urls
26043,Dättlikon,8421,http://www.daettlikon.ch
26044,Dübendorf,8600,http://www.duebendorf.ch
26045,Dürnten,8635,no urls
26046,Eglisau,8193,http://www.eglisau.ch
26047,Elgg,8353,http://www.elgg.ch
26048,Ellikon an der Thur,8548,no urls
26049,Marthalen,8464,http://www.marthalen.ch
26050,Elsau,8352,http://www.elsau.ch
26051,Embrach,8424,http://www.embrach.ch
26052,Erlenbach (ZH),8703,no urls
26053,Egg,8132,http://www.egg.ch
26054,Geroldswil,8951,no urls
26055,Unterengstringen,8951,http://www.unterengstringen.ch
26056,Weiningen (ZH),8951,no urls
26057,Fehraltorf,8320,http://www.fehraltorf.ch
26058,Hombrechtikon,8634,no urls
26059,Feuerthalen,8245,no urls
26060,Fischenthal,8497,no urls
26061,Flaach,8416,http://www.flaach.ch
26062,Flurlingen,8247,http://www.flurlingen.ch
26063,Küsnacht (ZH),8700,no urls
26064,Maur,8127,no urls
26065,Freienstein-Teufen,8427,no urls
26066,Uster,8615,http://www.uster.ch
26067,Thalwil,8800,http://www.thalwil.ch
26068,Opfikon,8152,http://www.opfikon.ch
26069,Glattfelden,8192,no urls
26070,Gossau (ZH),8625,no urls
26071,Greifensee,8606,http://www.greifensee.ch
26072,Grüningen,8627,no urls
26073,Waltalingen,8468,no urls
26074,Volketswil,8604,no urls
26075,Russikon,8322,http://www.russikon.ch
26076,Hagenbuch,8523,no urls
26077,Kappel am Albis,8926,no urls
26078,Hausen am Albis,8915,no urls
26079,Hedingen,8908,http://www.hedingen.ch
26080,Henggart,8444,http://www.henggart.ch
26081,Herrliberg,8704,no urls
26082,Hettlingen,8442,http://www.hettlingen.ch
26083,Hirzel,8816,http://www.hirzel.ch
26084,Hittnau,8335,http://www.hittnau.ch
26085,Hochfelden,8182,http://www.hochfelden.ch
26086,Hofstetten (ZH),8354,no urls
26087,Horgen,8810,http://www.horgen.ch
26088,Humlikon,8457,http://www.humlikon.ch
26089,Höri,8181,http://www.hoeri.ch
26090,Hüntwangen,8194,http://www.huentwangen.ch
26091,Hütten,8825,http://www.huetten.ch
26092,Hüttikon,8115,no urls
26093,Kilchberg (ZH),8802,no urls
26094,Knonau,8934,no urls
26095,Langnau am Albis,8135,no urls
26096,Wald (ZH),8637,no urls
26097,Lindau,8315,http://www.lindau.ch
26098,Kloten,8302,http://www.kloten.ch
26099,Lufingen,8426,http://www.lufingen.ch
26100,Maschwanden,8933,no urls
26101,Meilen,8706,http://www.meilen.ch
26102,Mettmenstetten,8932,http://www.mettmenstetten.ch
26103,Männedorf,8708,http://www.maennedorf.ch
26104,Neerach,8173,no urls
26105,Weisslingen,8484,http://www.weisslingen.ch
26106,Niederglatt,8172,http://www.niederglatt.ch
26107,Niederweningen,8166,http://www.niederweningen.ch
26108,Nürensdorf,8309,no urls
26109,Oberembrach,8425,http://www.oberembrach.ch
26110,Oberengstringen,8102,http://www.oberengstringen.ch
26111,Oberglatt,8154,http://www.oberglatt.ch
26112,Niederhasli,8155,http://www.niederhasli.ch
26113,Oberrieden,8942,http://www.oberrieden.ch
26114,Oberstammheim,8477,no urls
26115,Oberweningen,8165,http://www.oberweningen.ch
26116,Obfelden,8912,no urls
26117,Oetwil an der Limmat,8955,no urls
26118,Oetwil am See,8618,no urls
26119,Otelfingen,8112,no urls
26120,Ottenbach,8913,http://www.ottenbach.ch
26121,Pfungen,8422,http://www.pfungen.ch
26122,Rafz,8197,http://www.rafz.ch
26123,Regensberg,8158,http://www.regensberg.ch
26124,Rheinau,8462,http://www.rheinau.ch
26125,Richterswil,8805,http://www.richterswil.ch
26126,Rickenbach (ZH),8545,no urls
26127,Rifferswil,8911,http://www.rifferswil.ch
26128,Rorbas,8427,no urls
26129,Trüllikon,8465,http://www.truellikon.ch
26130,Rümlang,8153,http://www.ruemlang.ch
26131,Rüschlikon,8803,http://www.rueschlikon.ch
26132,Rüti (ZH),8630,no urls
26133,Schlatt (ZH),8418,no urls
26134,Schleinikon,8165,http://www.schleinikon.ch
26135,Schlieren,8952,http://www.schlieren.ch
26136,Schwerzenbach,8603,http://www.schwerzenbach.ch
26137,Schöfflisdorf,8165,http://www.schoefflisdorf.ch
26138,Schönenberg (ZH),8824,no urls
26139,Seuzach,8472,http://www.seuzach.ch
26140,Stallikon,8143,no urls
26141,Steinmaur,8162,http://www.steinmaur.ch
26142,Stäfa,8712,no urls
26143,Thalheim an der Thur,8478,no urls
26144,Ossingen,8467,http://www.ossingen.ch
26145,Truttikon,8467,http://www.truttikon.ch
26146,Turbenthal,8488,no urls
26147,Uetikon am See,8707,no urls
26148,Laufen-Uhwiesen,8248,no urls
26149,Uitikon,8142,http://www.uitikon.ch
26150,Unterstammheim,8476,no urls
26151,Urdorf,8902,http://www.urdorf.ch
26152,Volken,8459,http://www.volken.ch
26153,Wallisellen,8304,http://www.wallisellen.ch
26154,Wasterkingen,8195,no urls
26155,Weiach,8187,no urls
26156,Hinwil,8340,http://www.hinwil.ch
26157,Wettswil am Albis,8907,no urls
26158,Wetzikon (ZH),8620,no urls
26159,Wil (ZH),8196,no urls
26160,Wila,8492,no urls
26161,Wildberg,8489,http://www.wildberg.ch
26162,Stadel,8175,http://www.stadel.ch
26163,Winkel,8185,http://www.winkel.ch
26164,Winterthur,8400,no urls
26165,Zell (ZH),8487,no urls
26166,Zollikon,8702,http://www.zollikon.ch
26167,Zumikon,8126,http://www.zumikon.ch
26168,Zürich,8000,http://www.gemeinde-zuerich.ch
